"Unique Ref No.","Attraction Name","","Address 1","Address 2","Address 3","Address 4 (Town)","Address 5 (County)","Post Code","Telephone","Website","Email","Beaches & Coast              (1)","Historic sites, Homes & Gardens        (2)","Indoor Activities        (3)","Outdoor Activities       (4)","Wildlife & Nature               (5)","Museums & Galleries       (6)","Entertainment      (7)","Indulgence      (8)"
"13000","Ashdown House","Unusual Dutch-style house on the Berkshire Down.

This extraordinary building with a dolls'-house appearance nestles in a beautiful valley on the Berkshire Downs, surrounded by woodland.
It was built by an Earl, William Craven, as a house fit for the queen he loved, Queen Elizabeth of Bohemia in 1662.
Access to the house is by guided tour only at 2.15, 3.15 and 4.15, for up to 25 people at a time. House is tenanted and access is limited to hall, staircase (100 steps) and roof. Accompany one of our guides and hear about the history of the house. Learn how it was built as a hunting lodge, became a Victorian family home and later an Army training base during the Second World War.
After visiting Ashdown House and grounds take a walk in Ashdown Woods. There are many trails to follow and many different types of trees to see. Some of the woodland is older than the house. Follow the tree trail through Ashdown Woods. There is a map available and markers to show you the way. The information guide gives you interesting information about the trees.
The grounds can be visited when the house is open and the woodland open all year round, Sunday to Thursday.
","Lambourn","","","Newbury","Berkshire ","RG17 8RE","01494 755569","http://www.nationaltrust.org.uk/ashdown-house/","ashdownhouse@nationaltrust.org.uk","","2","3","4","","","",""
"13001","Basildon Park","An 18th-century house, a 1950s home.

This extraordinary building with a dolls'-house appearance nestles in a beautiful valley on the Berkshire Downs, surrounded by woodland.
This is a story of grandeur created, dissolved and resurrected - not once, but twice.

Basildon Park is an impressive Georgian mansion, surrounded by glorious parkland, which was lovingly rescued from ruin by Lord and Lady Iliffe in the mid-1950s. The house you see today is a re-creation and restoration of the 18th-century mansion. They restored the elegant interior and scoured the country salvaging 18th-century architectural fixtures and fittings. They filled their comfortable new home with fine paintings, fabrics and furniture, which can still be enjoyed by visitors today.
Make the most of your visit by treating yourself to a cream tea, experience the nostalgia of our 1950s kitchen.
Our garden is beautiful all year round. Take a stroll around Lady Iliffe's Rose Garden, enjoy a game of noughts and crosses in the hazel hideout then relax on the lawn with a picnic and make the most of the glorious views of the house and surroundings.
Expansive countryside surrounds the Basildon Park mansion house with splendid views towards the Thames and the Chilterns. Enjoy a walk in our 400 acres of parkland and woodland, and take in the breath-taking views. Throughout the year enjoy the changing colours of the landscape. 
","Lower Basildon","","","Reading","Berkshire ","RG8 9NR","0118 984 3040","http://www.nationaltrust.org.uk/basildon-park/","basildonpark@nationaltrust.org.uk","","2","3","4","","","",""
"13002","Cliveden","Magnificent formal gardens overlooking the River Thames.

A country retreat on a grand scale, Cliveden’s magnificent gardens and breath-taking views have been admired for centuries.
Cliveden was once the glittering hub of society; visited by virtually every British Monarch since George I and home to Waldorf and Nancy Astor in the early 20th century. Cliveden was renowned for hosting exclusive parties and political gatherings, and later became infamously associated with the Profumo Affair.
Today, the whole family can relax whilst exploring the stunning gardens, peaceful woodlands and Thames riverbank. 
The house is now a private hotel and timed ticket guided tours of part of the interior are available on Thursday and Sunday afternoons between April and October.
We’ve lots of fun things for families to do together, such as following one of our trails or solving the Maze. There's also plenty of space to run around and let of steam and our Storybook Play Den.
For an extra special treat take a ride on one of our flotilla of boats and cruise the prettiest stretch of the Thames.
As well as skippered trips we also have a self-drive boat station where you can hire rowing and motor boats.
","Cliveden Road","Taplow","","Maidenhead","Berkshire ","SL6 0JA","01628 605069","http://www.nationaltrust.org.uk/cliveden","cliveden@nationaltrust.org.uk","","2","","4","","","",""
"13003","Beale Park","The place to be with fun, adventure, animals, gardens, play and activities on the banks of the picturesque River Thames.
There’s plenty to do and see at Beale Park with a host of attractions for all to enjoy! There really is something for everyone with everything from animals, landscaped gardens and adventure play to a miniature railway and the Peacock Restaurant.

Beale Park is home to a diverse collection of animals.  Popular favourites include: Ring-tailed lemurs, wallabies, meerkats, raccoons, prairie dogs, yellow mongoose, river hogs, monkeys, goats and numerous small mammals in our Pet's Corner. 

Set against a stunning backdrop of the River Thames in Berkshire, Beale Park is not only home to an exciting mix of animals and attractions; but it also offers visitors the chance to relax and enjoy nature at its best with a variety of gardens, sculptures, trails and lakes to enhance your visit.

The season runs from February to November.
","The Child Beale Trust","Lower Basildon","","Reading","Berkshire ","RG8 9NH","0844 8261761","http://www.bealepark.co.uk/","administration@bealepark.co.uk","","","","4","","","",""
"13004","Bucklebury Farm Park","Bucklebury Farm Park offers a magical experience and a great value day out in the countryside whatever the weather - that will appeal to the whole family, friends, schools and clubs.


Set in a stunning 77-acre site we have a host of attractions including: Deer Park, Farm Animals, Indoor Play, Pedal Go cart track, Tractor Rides (included in your admission price), Woody’s Cafe & Tea Room, Outdoor refreshments, Adventure Playground, The Wild Walk, Be A Farmer Club, Den Building…
Research shows that just five minutes of exercise in a “green space” such as a farm park can boost physical and mental health.* Interacting with animals is also proven to help us emotionally, lifting the spirits and giving an insight into the natural world.
At Bucklebury Farm Park you can run, jump, swing, go-cart, de-stress and be out in the fresh air all year round and we are a great venue for Birthday Parties, educational School Visits, corporate days, special events and celebrations.
","Bucklebury","","","Reading","Berkshire ","RG7 6RR","0118 971 4002","http://www.buckleburyfarmpark.co.uk/","info@buckleburyfarmpark.co.uk","","","","4","","","",""
"13005","California Country Park","California Country Park covers 40 hectares and is set within 100 acres of ancient bogland and lowland heath.

It offers scenic walks, wildlife watching, fishing and nature walks. A children's play area is located near the bog and heathland. Boardwalk and laid paths provide easy access.  Interesting wildlife such as sphagnum mosses, springtime orchids, adders, and silver studded blue butterflies can be found here and on the heathland.
","Nine Mile Ride","","","Finchampstead","Berkshire","RG40 4HT","0118 934 2016","http://www.wokingham.gov.uk/parks/countryparks/california/","countryside@wokingham.gov.uk","","","","4","5","","",""
"13006","Canoe and Kayak Tours","We specialise in Canoe and Kayak Tours on the River Thames. 


Canoe and Kayak Tours are situated in the Royal Town of Windsor, operating on Europe's best loved waterways, the River Thames. Come and experience Britain’s most visited sites form a whole new perspective, from river level. With the magical backdrop of the Royal town of Windsor and Windsor Castle. 

Why choose us?

• We have over 25 years' experience of working and paddling on the River Thames enabling us to provide you with expert knowledge of the waters in and around Windsor and throughout the Thames Valley.
• Some of our Guides have represented GB in their chosen discipline.
• All our Guides are qualified to a minimum of British Canoe Union (UKCC) Level 1 Coach.
• All our Guides are REC First Aid trained and CRB checked to ensure the safety of each individual.
• We offer very competitive prices which enables Best value for the family.  
• We are a family run business and we love to be on the water having fun.     
","Railway Arch 110","Riverway","","Windsor ","Berkshire ","SL4 6HX","07585 907734","http://www.canoeandkayaktours.co.uk/","info@canoeandkayaktours.com","","","","4","","","",""
"13007","City Sightseeing Windsor","City Sightseeing shows you the sights on a Windsor sightseeing bus tour.


Hop on board a Windsor sightseeing bus and discover a city that offers something for all the family. Enjoy the dignified tranquillity of Windsor and Eton, home to the British Monarchy for Centuries. See the famous Windsor Castle - the largest and oldest inhabited castle in the world, The Long Walk, Eton College and much more on this wonderful open top City Sightseeing bus tour of Windsor & Eton.

Turn your day into an adventure and experience LEGOLAND® Windsor where the children can let their imagination run wild. Why not make the most of your visit to Windsor and save money by combining your LEGOLAND® Windsor ticket with our Windsor sightseeing tour? 

Stroll through Eton College, marvel at Windsor Castle and admire the Statue of George III at the end of The Long Walk - you will never be short of things to do in Windsor. Sightseeing in this amazing city is an incredibly enjoyable experience for all ages so sit back, relax and let City Sightseeing show you the sights!
","Castle Hill","","","Windsor ","Berkshire","SL4 1NJ","07808 713938","http://www.city-sightseeing.com/tours/united-kingdom/windsor.htm","info@city-sightseeing.com","","","3","","","","7",""
"13008","Coral Reef Waterworld ","Recently refurbished fun pool – providing enjoyment for all. 


• A place of warmth and enjoyment in the Coral Pools
• The excitement of fast water
• The thrill of the Snake River flumes
• The Lazy River, enjoying the outdoor sun, available weekends and throughout the holiday periods
• The rush of the rapids
• The little Corals Toddlers' Pools, which includes a large yellow diving bell and drench buckets to entertain the kids!
• During school holidays and weekends we guarantee a two-hour session in the water
• Disabled access – see website for information

Giant water slides
• The python (family slide) can be ridden by an adult and small child - armbands are permitted on this slide
• The boa constrictor (fast slide) and the anaconda (medium slide) can not be ridden by children wearing buoyancy aids
• The boa constrictor (fast slide) is age restricted. Riders must be at least 8 years old. It must only be ridden by competent swimmers.
• The python and anaconda exit into a splash pool which is 1.1 metres deep

For adults only, there is the Sauna World – see website for details.
","Nine Mile Ride","","","Bracknell","Berkshire ","RG12 7JQ","01344 862525","http://www.bracknell-forest.gov.uk/coralreef","coral.reef@bracknell-forest.gov.uk","","","3","","","","",""
"13009","Cullinghood Equestrian Centre","ABRS approved riding school – offering lessons for children over 4 years and adults of any age. 


Learn to ride on a private, semi private or group lesson, these are available for the beginner and the more experienced rider.

The period stable yard has a listed octagonal barn, large Victorian boxes, an enclosed mews courtyard plus other traditional buildings with interesting architecture. The Modern stable complex is a fascinating new holmehold incorporating luxury stabling and client facilities, very pleasing to the eye and thought provoking.

The quality sweet tempered horses and ponies are carefully selected and suitable for all levels of equitation up to BHS stage 3. The staff are warm, friendly and welcoming. See ""Facilities""

We cater for children’s parties, pony care, pony camp, children’s holidays, gift vouchers, dressage, show jumping, cross country and corporate days.

We are very pleased to welcome our new addition "" ITHACUS "" our Mechanical Horse, otherwise known as the Racewood Dressage Horse Riding Simulator.
The Mechanical Dressage Simulator, simulates a life like horse which is capable of performing movements from Walk to Piaffe.  The interactive screen shows the digital horse doing Piaffe, Passage and Flying Change.  The simulator is incredibly useful for instruction aimed at all riders at all levels.

The Mechanical Horse Dressage Simulator has proved extremely beneficial to riders to overcome their nerves, gain confidence, increase fitness and can help riders recovering from injury. Our Mechanical Horse also includes a calorie counter, you will be amazed at how man-calories you burn in 30 minutes of riding our equisimulator.

The licensed Equestrian centre is located in the Thames Valley on a spellbound 400 acre farm in Royal Berkshire, 2 miles from Pangbourne village and within easy reach of Reading, Newbury, London, Oxford, Windsor and Bath.

","Herons Farm ","","","Pangbourne","Berkshire","RG8 8QA","0118 974 5228","http://www.cullinghood.co.uk/","enquiries@cullinghod.co.uk","","","","4","","","","8"
"13010","Dinton Pastures Country Park","Dinton Pastures Country Park covers just over 335 acres. The park is open daily. It has 7 lakes, 2 rivers, 3 public bird hides, meadows and an activity centre. 


Activities include: 
• Fishing - at White Swan Lake and the River Loddon
• Golf - Hurst Pay & Play Golf Course
• Horse riding - access is available through a permit system operated by the local riding club.
• Orienteering - special packs are available at the cafe 
• Boat hire 
• Walking groups]
• Watersports: windsurfing, canoeing, kayaking, paddleboarding, and sailing.

Dogs are welcome and we have dog waste bags and bins for you to use. Please keep dogs under control and prevent them from fouling footpaths. 
","Davis Street","","","Hurst","Berkshire ","RG10 0TH","0118 934 2016","http://www.wokingham.gov.uk/parks/parks/country-parks/dinton/?locale=en","","","","","4","5","","",""
"13011","Donnington Castle","The striking twin-towered 14th-century gatehouse of this castle, later the focus of a Civil War siege and battle, survives amid impressive earthworks.


Donnington Castle stands overlooking the Lambourn Valley in an important strategic position commanding the crossing of major north–south and east–west routes.

The gatehouse, which is two storeys high and is roofed at battlement level, survives well. It serves as evidence for the luxury and privacy enjoyed by Sir Richard Abberbury, whose private quarters would have been situated within this part of the castle.

The gate passage has a finely vaulted ceiling, while elegant stone string courses with carved gargoyles decorate the outside. At the rear of the gatehouse the fireplaces and doors indicate the floor levels. Patches of brickwork show where the gatehouse was damaged during the Civil War sieges. 

The external walls of the castle have been rebuilt to a height of 0.5 metres (2 feet) and indicate its original layout.
The Civil War defences survive as a series of scarps and platforms around the slopes of the hill.

Free entry. English Heritage membership not required.

Open September – March. Please check their website for exact dates and times. The website also includes a historic overview of the site.
","Castle Lane ","Donnington","","Newbury","Berkshire","RG14 2LE","0870 333 1181","http://www.english-heritage.org.uk/daysout/properties/donnington-castle/","<none>","","2","","4","","","",""
"13012","Windsor & Eton Brewery","79 years after the closure of Windsor’s last brewery, we are delighted to be bringing brewing back to Windsor. 


Our brewery is within sight of Windsor Castle and we hope that our ales will prove to be a great hit for locals and many of the 7 million visitors who come to Windsor and Eton each year.

We managed to create a new brewery from scratch in just seven weeks. On the 1st March 2010, St David’s Day, we began installing the brewing vessels and on 23rd April 2010, St George’s Day, pubs started selling Guardsman best bitter. We are beginning to think we might have a bit of saintly help! Our second beer, Knight of the Garter, was launched on 14th June 2010, to coincide with the Order of the Garter Ceremony at Windsor Castle. Conqueror, a black IPA, was launched in October. 

All three beers are available in many local pubs and clubs – a full list can be found on the ‘Where to Taste’ tab of our website and all three have also been bottled. Cask and bottled beer can now also be bought directly from the brewery, together with glasses, t-shirts, polo shirts and hats.

We offer fun and informative tours of the brewery which includes information about the raw materials, the brewing process and, of course, tasting. Tours last approximately 90 minutes and are held on the first Wednesday of the month at 7.30 pm. The cost is £10 per head and it is essential that you book in advance by calling us on 01753 854075.  You can also buy tour tickets as gifts either from our shop or via our website

If you are a group larger than 8 people, please call us to organise your own private tour.
Read a review from one of our tours:
“I would just like to thank you so much for our tour of your brewery yesterday. It was so generous of you to support our charity in this way, particularly as you are such a new business. There is no doubt that this ‘Out and About’ visit was one of the most memorable visits we have made, since our ‘Out and About’ Service was launched last October. I watched my people’s faces and there were beams from ear to ear.”
Out & about Co-ordinator
Alzheimers Dementia Support
","Duke Street","","","Windsor ","Berkshire ","SL4 1SE","01753 854075","http://www.webrew.co.uk","via website - http://www.webrew.co.uk/main/contact/","","","3","","","","","8"
"13013","Windsor Great Park","The 2,020 hectares (5,000 acres) of parkland, which includes a Deer Park, is a varied landscape of formal avenues, gardens, woodland and open grassland. 


The park’s area was determined in the 1360s and was popular with Saxon kings as a hunting forest. The park is shrouded in mystery and legend and for over 1,000 years the story of Herne the Hunter has been told. 

The park today is the perfect place for picnics, walking, cycling and horse riding. A footpath map of the park is available from the Royal Windsor Information Centre.

Accessible from Windsor town centre on foot via the Long Walk, or car parks are located along the A332 that goes through the Park. Alternatively you can drive to Virginia Water and park at Blacknest Gate for a walk around the lake, where you will pass a totem pole and miniature waterfall.

Free entry to all areas of Windsor Great Park, except for the Savill Garden. Free car parking areas on the A332. Chargeable parking at gates around the Great Park. Open year round from 7am to dusk.
","The Great Park","","","Windsor ","Berkshire","SL4 2HT","01753 860222","http://www.thecrownestate.co.uk/windsor/parkland/windsor-great-park/","enquiries@thecrownestate.co.uk","","","","4","","","",""
"13014","Bray Lake Watersports ","Berkshire's Premier Windsurfing, Sailing and Paddlesports Centre.


Bray Lake Watersports one of the UK's largest water sports clubs in the country. With over 30 years of experience, we are confident that our enthusiastic instructors will get you out on the water sailing, windsurfing or paddling with confidence in the shortest time possible.

We offer a variety of tuition packages to suit just about anyone who want to learn to windsurf, dinghy sail, kayak, canoe or stand up paddleboarding. We are here to get you started and become confident in your sport.

After that we've got courses to help you improve and develop, we even run trips to other locations both home and abroad all of which is great for developing your skills.

We also have a fully stocked watersports shop with new, used and second hand equipment always available whatever your equipment requirements.

Groups, including school groups are welcome and the centre also provides instructor training.
","Monkey Island Lane","Bray","","Maidenhead","Berkshire ","SL6 2EB","01628 638860","http://www.braylake.com/","info@braylake.com","","","","","","","",""
"13015","Changing the Guard","Changing the Guard at Windsor Castle encompasses colourful spectacle and British pageantry. 


The Changing of the Guard is one of the highlights of a visit to Windsor. A band usually accompanies the Guards, although this is subject to weather conditions.

The Guards can be watched as they march up the High Street and into the Castle, but to see the actual ‘changing’ ceremony you need to have paid to go into the Castle. The Ceremony takes place outside the Guardroom in the Lower Ward of the Castle. To watch the Guards march up the High Street takes only 10 minutes; to watch the actual ceremony inside the Castle takes about 30 minutes.

The Guard March takes place all year round, dependant on the weather. The Guards march on alternate days from August to March and daily during April, May, June and July, but never on a Sunday. The schedule (see final paragraph) is set by the British Army and is subject to change. Please check the Royal Collection's website for latest information.
","High Street","","","Windsor ","Berkshire","SL4 1NJ","020 7766 7304","http://www.royalcollection.org.uk/visit/windsorcastle/what-to-see-and-do/the-changing-the-guard","bookinginfo@royalcollection.org.uk ","","","","4","","","7",""
"13016","Eton College ","Eton College was founded in 1440 by King Henry VI to provide free education for 70 poor scholars who would then go on to further their education at King’s College, Cambridge.


Life in the early days was harsh: the boys had to wash outside using only cold water. From these 70 scholars, the school has expanded to about 1,311 boys aged from 13 to 18 who are admitted by competitive examination, and has become one of the most well-known schools in the world.

Eton has educated 19 former British Prime Ministers including the Duke of Wellington, Walpole, Pitt the Elder, MacMillan and Douglas-Home. The School Dress, which dates from the 1850s, still consists of a black tailcoat and waistcoat and pin-striped trousers.

Self-guided tour available, daily during college holidays times. Short guided tours for individuals, of around an hour in duration, are arranged at 14.00 and 15.15 during Eton's holidays. Pre-booking is essential for everyone. Please see the website for further details. 
","High Street","Eton","","Windsor ","Berkshire ","SL4 6DW","01753 671177","http://www.etoncollege.com/","r.hunkin@etoncollege.org.uk","","2","","","","","",""
"13017","Legoland","Play your part in a world of LEGO® adventure at the LEGOLAND Windsor Resort with over 55 rides and attractions. 


Earn your very first driving licence, dive into a magical underwater adventure on a LEGO submarine or discover your favourite landmarks in world famous Miniland.

Plus for the ultimate LEGOLAND® experience, why not stay over in one of our fully themed bedrooms at our Resort Hotel?

Kids of all ages will be able to splash and play in our new themed land – DUPLO Valley, float through a new magical fairy tale landscape, experience a new LEGO 4D movie and meet the stars of LEGO Star Wars™.

Begin your LEGO® adventure today at www.LEGOLAND.co.uk NB reduced entry prices for personal callers to the Royal Windsor Information Centre and also online via www.LEGOLAND.co.uk.
","Winkfield Road","","","Windsor ","Berkshire","SL4 4AY","0870 504 0404","http://www.legoland.co.uk/","LEGOLAND.Enquiries@merlinentertainments.biz","","","","4","","","7",""
"13018","Ascot Racecourse","Ascot Racecourse is synonymous with quality, excellence and a truly memorable day out.


The highlight of the year is Royal Ascot in June with five days of tradition, pageantry and style. Outside of Royal Ascot spectacular racing takes place throughout the year, each race-day offering a unique theme and atmosphere including a summer cocktail party in July, a Beer Festival in October and Fireworks in November as well as five dedicated family race-days and much more.
","High Street","","","Ascot","Berkshire ","SL5 7JX","0870 727 1234","http://www.ascot.co.uk/","pr@ascot.co.uk","","","","","","","",""
"13019","Burnham Beeches Golf Club","Founded in 1891, Burnham Beeches Golf Club provides a challenging golf course in a beautiful setting on the edge of the historic Burnham Beeches.


Being over 100 years old the course benefits from having a large number of mature trees which frame the majority of the holes. The undulating layout based on gravel drains particularly well and the full greens, tees and fairway irrigation ensures good summer playing conditions. Please visit the website to see hole by hole images.

The club is situated in the Thames Valley in South Buckinghamshire, with the old town of Beaconsfield to the north, Burnham village to the south and Maidenhead to the west. It is easily accessed from the M40 (10 minutes), the M4 (5 minutes) or the A4. The course measures 6,458 yards, has a Par 70 (SSS 71) and offers a true and challenging test of golf.  We know that you will enjoy your visit.

Visitors are welcome from Monday to Friday and we also welcome weekend visitors accompanied by a member.
","Green Lane","Burnham","","Slough","Berkshire","SL1 8EG","01628 661448","http://www.bbgc.co.uk/","enquiries@bbgc.co.uk","","","","4","","","","8"
"13020","Datchet Golf Club","Datchet Golf Club is the nearest golf course to Windsor running along the River Thames under the watchful eye of Windsor Castle.


The Course, designed by J H Taylor, is one of the oldest courses in the counties of Berkshire, Buckinghamshire and Oxfordshire, and since 1890 has been providing a tough challenge for everyone that plays the course.

Discreetly tucked away, just a lob wedge from the centre of Datchet Village, you'll be warmly welcomed by its members and staff alike.

Please visit the website for more information, including Green Fees.
","Buccleuch Road","","","Datchet","Berkshire ","SL3 9BP","01753 543887","http://www.datchetgolfclub.co.uk/","secretary@datchetgolfclub.co.uk","","","","4","","","","8"
"13021","Datchet Watersports ","We teach dinghy sailing, windsurfing, power-boating and yachting to a very high level, but we also like to ensure that everyone has a good time too! 


Here at Datchet Watersports we are blessed with excellent facilities for sailors and windsurfers, friends & family, corporate events. These include the vast stretch of water, the beautiful views across to Windsor Castle, excellent “galley” or catering facilities, large comfortable viewing lounge, conference/meeting rooms and good car parking.

First and foremost, the Queen Mother Reservoir is huge! At over a mile across, it is one of the largest of London’s reservoirs. High performance asymmetric spinnker boats have enough room to really stretch their legs – The sailing club even has a few resident 18ft Skiffs! For windsurfers, when the wind is in the right direction, you can blast for over a mile without turning around! Much further than you would venture out at the coast!

Our season runs from February to November inclusive, and we are open from Wednesday to Sunday (Mondays & Tuesdays closed).

Please visit the website for more details.
","Queen Mother Reservoir","Horton Road","","Horton","Berkshire","SL3 9NT","01753 683990","http://www.datchetwatersports.co.uk/","info@datchetwatersports.co.uk","","","","4","","","",""
"13022","Dorney Court","Dorney Court is one of the country’s finest stately homes and any visit is a fascinating and unique experience.


Built in the 15th Century, the Tudor Manor House has been lived in by the Palmer family who have passed this remarkable and characterful building from father to son over thirteen generations. Visitors will find rooms full of history. Oak and beautiful lacquer furniture compete for space with family portraits and treasures collected over six centuries. The adjacent 13th-Century church of St James the Less, with its Norman front and Tudor tower, are also open to the public.

“Dorney” is the ancient Saxon word for “island of bees” and the estate remains famous for its honey which is still produced to this day. The very first pineapple to be raised in England was grown at Dorney Court and presented to Charles II in 1661 and the spectre of a bald lady haunts the wood panelled hallways.

**From late April until the end of May Dorney Court sells home-grown asparagus from the back entrance of the House. This is picked first thing every morning and has usually sold out by early afternoon. For orders and further information please telephone: 01628 604147.**

Dorney Court Kitchen Garden, a high quality garden centre, situated next to the House serves cream teas and light lunches throughout the year.

Open on set days in May and June, then every day in August. Group Tours and Connoisseurs tours are welcome by appointment throughout the year. Please see the website for more details.
","Dorney","","","Windsor ","Berkshire ","SL4 6QP","01628 604638","http://www.dorneycourt.co.uk/","enquiries@dorneycourt.co.uk","","2","3","","","","",""
"13023","Eton College Natural History Museum","Eton’s hidden gem                                                                            The museum was opened in 1875 to house the Thackeray Collection of British Birds and other collections and have been located in its present site since 1895. It is Berkshire’s only dedicated natural history museum and houses over 15,000 specimens, donated from the nineteenth century onwards. All the displays (over 70 of them) date from 2000.  The Museum is used extensively for teaching biology and geology as well as being open to the public and visited by numerous schools and outside groups.  ","Eton College","","","Windsor ","Berkshire","SL4 6DW","01753 671288","http://etonnhm.com/","http://etonnhm.com/","","","3","","","6","",""
"13024","Eton High Street","Eclectic mix of shops, cafes, restaurants & pubs.


Distinctive gift shops nestle amongst traditional and contemporary art galleries, antique stores and bridal & fashion boutiques. When you need refreshment, whether it's a snack sitting in the sun at a pavement cafe, or something more substantial in one of our first class restaurants, Eton High Street caters for all.

Eton High Street boasts a fine selection of independent retailers committed to personal service and individual attention, from wining and dining to gifts for men and women.
","High Street","Eton","","Windsor ","Berkshire ","SL4 6AS","none","none","none","","","3","","","","","8"
"13025","French Brothers Ltd","French Brothers run public trips from Windsor, Runnymede and Maidenhead. Choose from a short return trip or a full-day cruise.
.

French Brothers were the winner of Best Inland Canal/Riverboat Operator in the 2008 Group Travel Organiser Magazine Awards.

Based on the Thames at Windsor, Runnymede and Maidenhead, French Brothers luxury passenger boat operators have become firmly established as market leaders in the creation and management of riverboat events.

From short cruises along the Thames to extravagant corporate affairs and wedding receptions, French Brothers really are the boat operator of choice whatever your requirements.

In addition to the 40-minute and 2-hour trips, French Brothers also run trips from Windsor to Maidenhead and Runnymede. French Brothers also run trips from Runnymede to Hampton Court on Mondays, Tuesdays and Thursdays from June to September. It is also possible to take a French Brothers boat from Windsor Promenade to the evening meetings at Royal Windsor Racecourse.

Tickets are now bookable online via the French Brothers website and are also available at the Tourist Information Centre in Windsor or French Brothers Promenade.
","The Clewer Boathouse","Clewer Court Road","","Windsor ","Berkshire","SL4 5JH","01753 851900","http://www.frenchbrothers.co.uk/","sales@boat-trips.co.uk","","","","4","","","7",""
"13026","Frogmore House","Frogmore House, set in the private Home Park, is renowned for its beautiful landscaped garden and 18th-century lake.


Queen Victoria was inspired to write 'all is peace and quiet and you only hear the hum of the bees, the singing of the birds'. Indeed Queen Victoria loved Frogmore so much that she chose to build a mausoleum for herself and her husband, Prince Albert, in the grounds.

The interior of Frogmore House reflects the interests and talents of several generations of the royal family.

Princess Elizabeth, daughter of George III and Queen Charlotte was a gifted amateur artist and painted the decorative panels on view in the Cross Gallery.

In the Victoria Closet visitors can see works of art executed by three generations of the royal family - Victoria, Duchess of Kent, Queen Victoria, and a number of works by Queen Victoria's children, including Princess Victoria and Princess Louise.

The garden is one of the enduring attractions of Frogmore. Queen Charlotte had a great interest in botany and was given full rein in the garden at Frogmore, which she laid out with rare and unusual plants. She formed an extensive botanical library and flowers became a major theme in the house. She commissioned Mary Moser (1744-1819), a renowned flower painter, to decorate a room with garlands of flowers.
","Home Park","","","Windsor ","Berkshire ","SL4 1NJ","020 7766 7305","http://www.royalcollection.org.uk/visit/frogmorehouse","bookinginfo@royalcollection.org.uk ","","2","","4","","","",""
"13027","Magnet Leisure Centre","A multi-purpose leisure centre situated on Holmanleaze, Maidenhead, within easy walking distance of the town centre.


Maidenhead’s superb leisure centre has an 8-lane 25-metre pool with family fun pools and Cheeky Charlie’s Indoor Adventure World for the 2 to 12 year olds. Crèche facilities are available for up to 2 hours, allowing parents to catch some time for themselves.

The large sports hall and bodyzone fitness suite are well equipped for many different activities, including aerobics, yoga, badminton, squash, basketball, five-a-side football, short tennis, table tennis and volleyball.

There is a good café for lunch and lots of organised activities for the little ones during the summer school holidays.

Children under 8 need to be accompanied by an adult. An adult should not supervise more than 2 children under the age of 8 years.
","Holmanleaze","","","Maidenhead","Berkshire","SL6 8AW","01628 685333 or 01628 685335","http://www.rbwm.gov.uk/web/magnetlc_index.htm","magnet@rbwm.gov.uk ","","","3","","","","",""
"13028","Norden Farm Centre for the Arts","Norden Farm is an entertainment venue with cinema, theatre, art gallery and Cafe Bar. 


Our programme includes gig (blues, classical, swing, rock) , comedy, films (blockbuster, independent and arthouse), theatre, gallery, plus classes for pre-school, youth and adults.

Enjoy a pre-show dinner in our Cafe Bar, order interval drinks or drop in for cappuccino and hand-baked cake, while taking advantage of our free newspapers and WiFi. Our menu featurs daily specials, freshly made sandwiches and wraps (lunchtime only), main meals, light bites and appetisers. Drinks include local beers, artisan tas, coffees and juices. The Cafe Bar can alos cater for your special occasion such as christenings, celebration lunches and birthday dinners.

Norden Farm also offers unique and creative spaces for meetings, team-building days and conferences.
","Altwood Road","","","Maidenhead","Berkshire ","SL6 4PF","01628 788997","http://nordenfarm.org","admin@nordenfarm.org","","","3","","","","7",""
"13029","Odeon Maidenhead ","Eight screen cinema.


ODEON Maidenhead is situated in the town centre. The cinema has 8 screens (Premier Seats, Costa, Ben & Jerry's) 2 ATMs which are located in the main foyer.

Please visit the website for a comprehensive guide to film listings for the next 7 days. 

Accessibility - All floors of the cinema have level access with lifts, escalators and stairs available to all floors. All areas of the cinema including the box office, refreshments stand, ticket machines, Costa Coffee and Ben and Jerry?s counter, are level access. Lowered counters are available at all kiosks for Wheelchair users. 
","42-44 King Street","","","Maidenhead","Berkshire ","SL6 1DY","0871 22 44 007","http://www.odeon.co.uk/cinemas/maidenhead/10/","","","","3","","","","7",""
"13031","St George's Chapel","St George's Chapel, within the precincts of Windsor Castle, is one of the most beautiful ecclesiastical buildings in England.


The building was started by Edward IV in 1475 and took fifty years to construct. It is the Chapel of the Most Noble Order of the Garter, Britain's highest order of chivalry founded by Edward III in 1348. Members are selected by The Sovereign and include foreign monarchs and previous Prime Ministers.

Ten monarchs are buried in the Chapel including Edward IV himself, Henry VIII with his favourite wife Jane Seymour, Charles I, George V and Queen Mary and George VI and Queen Elizabeth the Queen Mother. Beyond St George's Chapel is the entrance to the Albert Memorial Chapel, converted by Queen Victoria as a memorial to her husband Prince Albert who died in 1861.
","Chapter Office","The Cloisters","Windsor Castle","Windsor ","Berkshire ","SL4 1NJ","01753 865538","http://www.stgeorges-windsor.org/","none","","2","3","","","","",""
"13032","Tally Ho","Even beginners can experience the ride of a lifetime in the beautiful Windsor Great Park.


The Tally Ho riding and hacking experience includes;
• Fully supervised rides and hacks in the Great Park
• Routes for every ability and skill level
• Experienced and fully qualified Ride Leaders
• Equipment (and horses!) provided
• Stunning forest and deer park surroundings
• Evening rides through summer time
• BET training courses and exams
• Well stocked riding shop
We are fully licenced to take rides through the park and all our Ride Leaders are qualified and experienced riders who will take absolute care of you. Approved as a BET training centre and regularly inspected as an approved British Horse Society riding school at Tally Ho you’re guaranteed a professional service with wonderfully behaved horses that are kept in the very best health.

You can find full details of our horse rides and hacking on the website. We also welcome enquiries on any aspect of the riding school, our friendly team are always available to answer questions or take bookings.
","Crouch Lane","Winkfield","","Windsor","Berkshire ","SL4 4RZ","0800 590048","http://www.tallyhostables.co.uk/","via website http://www.tallyhostables.co.uk/contact-us","","","","4","","","","8"
"13033","The Look Out Discovery Centre ","Hands on Science and Nature Exhibition, with over 90 exhibits suitable for children of all ages. Plus a fantastic outdoor playground, set within 1,000 hectares of woodland.


Toddlers and younger children love the indoor stream, mini supermarket and soft play area. Older children through to adults will be fascinated by the hands-on science exhibits and puzzles. 

Forces and Movement Zone
It’s time to lift off! Launch a hydrogen rocket or send a huge hot air balloon skyward. See the world suspended mid-air by our Bernoulli blower.

Body and Perception Zone
Challenge your body and brain. Test your reaction speed on Batak, or create an amazing design with our art machine. Can you solve the jigsaw of the human body?

Light and Colour Zone
Have some colourful fun with Optimusic - step on the colour beams as fast as you can. Capture your silhouette in the shadow box or play a tune with laser beams!

Woodland and Water Zone
Play with boats in our indoor stream. Learn some incredible facts about our local wildlife. Become fascinated by the colony of busy leaf-cutter ants. (Please note that the woodland and water zone is unheated).

Build It! Zone
Become a member of The Look Out construction crew by helping to build the new house at The Look Out! Great teamwork is required! Use the rubble chute, wheelbarrows, design a house or drive the dumper trucks. 
Lots of fun!

To avoid disappointment, please note that the exhibits and zones may change throughout the year.

The centre is set in 1,000 hectares of woodland which is owned and managed by The Crown Estate. 
","Nine Mile Ride","","","Bracknell","Berkshire ","RG12 7QW","01344 354400","http://www.bracknell-forest.gov.uk/thelookoutdiscoverycentre","customer.services@bracknell-forest.gov.uk","","","3","","","","7",""
"13034","Swinley Forest (The Look Out Discovery Centre)","1,000 hectares of Crown Estate woodland, with an adventure playground, walks, trails and cycling.


Adventure play area
Our fantastic adventure play area features the infant play trail which is suitable for younger children aged between 3 and 6 years old. The play area for older children aged 7 to 11 years old has a magnificent fort as its centrepiece. Our all-ability play area is suitable for all ages and is wheelchair accessible. The tables and seating, which surround the area, are perfect for picnicking in fine weather.

Walks, trails and cycling
The Look Out Discovery Centre is the perfect starting point for a wide variety of walks, trails and bike rides suitable for adults and children of all ages and abilities. 

There is a 24.2 kilometre cycle network suitable for all abilities from families cycling for fun to highly-skilled riders. There is a map at the start of each ride for cyclists to follow a numbered route..

Orienteering
We have an orienteering course available for only £1 per course. The course starts and finishes at The Look Out with three suggested courses of 2.5km, 4.3km - or 6.9km for the most adventurous! Please ask at reception for the orienteering map and course information.

Mountain bike hire
Mountain bike hire is available at The Look Out courtesy of Wellington Trek. From here both novice and experienced bike riders will have the opportunity to explore the surrounding woodland. Maps are available from The Look Out for cycling in Swinley Forest. 

Bike hire is available every weekend and bank holiday and Bracknell Forest school holidays from February to October. Please note that it is closed from the end of October until the February school holiday. Availability of this service may be weather dependant. 

Go Ape!
The UK’s No.1 Forest Adventure.
There’s a tree top adventure to enjoy - take to the trees and speed down zip slides, part of an exciting course of rope bridges, Tarzan swings and crossings all set high above the forest floor.

You can also enjoy the forest Segway, experience on two wheels - get off-road and explore the great outdoors on the latest all-terrain Segways.
","Nine Mile Ride","","","Bracknell","Berkshire ","RG12 7QW","01345 354400","http://www.bracknell-forest.gov.uk/thelookoutdiscoverycentre","customer.services@bracknell-forest.gov.uk","","","","4","5","","",""
"13035","Waltham Place","Waltham Place offers you an experience of a biodynamic and organic farm and gardens. We take garden tours, school visits, seasonal walks and training courses. 


Waltham Place Estate has often been described, as, “the best kept secret in Berkshire”, and that should arouse your curiosity to visit this hidden gem.

What you find here is a little oasis which has much to offer the visitor at all levels. There are beautiful gardens to walk around, which explore the boundaries between gardens and nature. After which you can enjoy the delicious home-made cakes in the tea room and browse in the farm shop.

The estate includes a farm, ornamental and kitchen gardens, with a lake and woodlands. It has been managed organically for over 20 years and has matured into a thriving environment.

The gardens are open by appointment only. Head Gardener Beatrice Krehl, takes groups around the gardens. She explains the principles of naturalistic planting used here, for example how the plants are allowed to run their natural cycle and therefore support the wealth of insect and bird life.

With the current interest in food miles, sustainability, and a greener lifestyle, education is an important part of the Waltham offering and there are tours for schools and adult courses on offer too.

The estate holds seasonal walks during the spring and autumn months.
","Church Hill","White Waltham","","Maidenhead","Berkshire","SL6 3JH","01628 825517","http://www.walthamplace.com/","estateoffice@walthamplace.com ","","2","","4","","","",""
"13036","Windsor & Royal Borough Museum","A registered/accredited, family-friendly and accessible small local history museum in a Grade 1 listed building completed in 1689. 


Come and discover the history of the town and the area. Listen to the stories of people who lived and worked here.

The collection relates to the history of Windsor, and other towns and villages across the Borough in East Berkshire. The museum has on display a selection of some of the many objects from the collection including a100,000 year old mammoth’s tusk, pre-historic tools, Bronze Age, Roman and Saxon artefacts, together with objects and ephemera from before Victorian times up to World War II, the 1950s and the present day.

The museum is staffed at all times and supported by a team of volunteer stewards, and also The Friends of the Windsor & Royal Borough Museum. The Museum and Collections Officer is usually on duty on Thursdays for curatorial advice.

Tours and groups welcome.
","Windsor Guildhall","High Street","","Windsor","Berkshire ","SL4 1LR","01628 685686","http://www.rbwm.gov.uk/web/museum_collection.htm","museum@rbwm.gov.uk","","","3","","","6","",""
"13037","Windsor Leisure Centre","We've a big welcome waiting for you at Windsor Leisure Centre. Whatever your age, whatever you want from your leisure activities, you'll get the best out of them with us.


We have a 25 metre 6 lane Fitness Pool, Leisure Pool with wave machine, Giant Slides, water features and Spa Pool.
Look out at the trees and river when you work out in the air conditioned BodyZone.
 150 station gym, Personal Training and fitness tests
 3 Fitness Studios, Power Plates, Health Suite
 25m Swimming Pool and Leisure Pool
 Creche
We have a superb multi-purpose sports hall with a sprung wooden floor. This is the ideal location for a wide range of sports including Ceroc, Badminton, Netball, Half Century Club, 5-a-side Football & SMILE activties.
The sports hall is an excellent place for a team to train and has availability for special events and private hire.
Enjoy using excellent equipment and extensive range of services in a brilliantly designed, purpose-built modern building. In our attractive landscaped riverside gardens you could sunbathe, test yourself on our Adult and Junior Trim Trails or watch the children on the large play area. Or just meet friends over a tasty snack in the Bistro.

From the freedom to ""do your own thing"" to joining in an organised session, there's plenty going on right through the day. Look out for our regular special programmes for everyone from juniors to seniors. You'll be spoilt for choice.

Set in a prime location overlooking the River Thames, yet conveniently close to major roads. You'll be glad you found us.
","Clewer Mead","Stovell Road","","Windsor","Berkshire ","SL4 5JB","01753 778577","http://www.rbwm.gov.uk/web/wlc_index.htm","wlc@rbwm.gov.uk ","","","3","","","","",""
"13038","Delta Force Paintball ","Set within over 100 acres of woodland in Berkshire. No expense was spared across the 7 fantastic game zones.


Delta Force Paintball Berkshire is located in Maidenhead and is yet another world class paintball centre in the Delta Force Paintball portfolio. Paintballing in Berkshire just got a whole lot more exciting! This incredible state-of-the-art centre is every paintballers dream and offers an amazing experience for players of all ages! No expense was spared as the huge 100-acre site even comes complete with a convoy of giant Soviet-era military trucks, direct from the 007 movie Tomorrow Never Dies. With a variety of incredible movie-set scenarios, including the largest Galleon in UK paintball, and a relaxed basecamp set in stunning woodland, get your friends together for an action-packed day of paintball at Delta Force Paintball in Maidenhead. Paintballing in Berkshire just doesn't get any better!

Pyrotechnics available: Paint grenades, Smoke grenades, Thunderflashes
Game Zones:
• Castle Wolfenstein
• Chemical Alley
• Mad Murphy's Jungle Attack
• Siege of Stalingrad
• The Black Pearl
• Zombies' Crypt
","Cannon Lane ","Shottesbrooke","","Maidenhead","Berkshire ","RG10 0QH","0844 477 5058","http://www.paintballgames.co.uk/paintball-missilewood-centre","info@paintballgames.co.uk","","","","4","","","",""
"13039","Highclere Castle","Designed by Sir Charles Barry, architect of the Houses of Parliament, this is considered to be one of the finest Victorian homes still in existence, which houses fine furniture and works of art.


Highclere Castle is a beautiful building and a warm, welcoming home to visitors and guests at events and celebrations held here. It is set amidst 1,000 acres of spectacular parkland. The Carnarvon family has lived at Highclere since 1679, and the current Castle stands on the site of an earlier house, which in turn was built on the foundations of the medieval palace owned by the Bishops of Winchester for some 800 years.

To the south east of the Castle lies the Monks' Garden, whose name is derived from the Bishops of Winchester who owned the Estate for 800 years before the Carnarvon family acquired it in 1679. Records in 1218 list 61 fruit trees which were replanted in 1364, when 44 apple and 27 pear trees were planted.
Today it has been changed into a more decorative garden, where climbing roses make a fine show in June above a border with penstemons, agapanthus and geranium. Lavender grows under the walls whilst a glass house is filled with Tea Roses for cutting as well as peaches and nectarines.

There are espaliered medlar and pear trees amongst yew topiary that leads into a splendid White Border Garden.
","Highclere Park","","","Newbury","Berkshire","RG20 9RN","01635 253 210","http://www.highclerecastle.co.uk","theoffice@highclerecastle.co.uk","","2","3","","","","",""
"13040","Go Ape","Go Ape’s the UK’s number one forest adventure. Days out with us are about living life a little more adventurously, having fun with friends and family and getting in touch with your inner Tarzan (he’s in there, we promise!)

Come and enjoy the classic and original Go Ape experience and our epic segway adventure at Bracknell, Berkshire. We’ll brief you for safety before you fly down our zip-wires, leap off our Tarzan Swing and tackle our obstacles whilst enjoying some seriously beautiful scenery. Get out, have some fun and enjoy the views from our forest canopy.
And the adventure doesn’t need to stop there. You can get off the beaten track and enjoy our latest forest adventure with Go Ape Forest Segway – an experience with a down to earth twist.
","Nine Mile Ride","","","Bracknell","Berkshire ","RG12 7QW","0843 770 3224","http://goape.co.uk/days-out/bracknell","questions@goape.co.uk","","","","4","","","",""
"13041","Sandham Memorial Chapel","World famous chapel containing Stanley Spencer's visionary paintings.

This modest red-brick building tucked away in a quiet corner of Hampshire houses an unexpected treasure – an epic series of large-scale murals, by the acclaimed war artist Sir Stanley Spencer.
Built to honour the 'forgotten dead' of the First World War, who were not remembered on any official memorials, the series was inspired by Spencer’s own experiences as a medical orderly and soldier on the Salonika front, and is peppered with personal and unexpected details. The paintings took six years to complete in all, and are considered by many to be the artist’s finest achievement, drawing such praise as 'Britain’s answer to the Sistine Chapel'.
The chapel still holds services three to four times a year, the most important of these being the annual Remembrance Day event.
Outside the chapel there's a traditional orchard and wildflower meadow with views across to Watership Down; a great setting for a leisurely picnic. Alternatively, the more energetic amongst you might like to follow in Spencer’s footsteps around the village of Burghclere, and take in some of the sights and places where he lived, loved, and was inspired by whilst completing his masterpiece.
Important information
The chapel can only accommodate 25 people at a time. It is essential that groups pre-book their visit on 01635 278394. Group visits are normally held on days when the chapel is closed to general visitors.
","Harts Lane","Burghclere","","near Newbury","Berkshire ","RG20 9JT","01635 278394","http://www.nationaltrust.org.uk/sandham-memorial-chapel/?p=1356308615045","sandham@nationaltrust.org.uk","","2","3","","","","",""
"13042","Museum of English Rural Life","The Museum of English Rural Life houses the most comprehensive national collection of objects, books and archives relating to the history of food, farming and the countryside.


It is the sheer quality and scope of these collections that makes MERL exceptional. They have designated status ensuring their importance is recognised nationally and internationally.

MERL was established in 1951 and grew out of the University's long tradition of academic excellence in agriculture. It pioneered a new field of museum activity and rapidly accumulated material relating to the great social and technological changes taking place in the countryside at the time, represented above all by the switch from horse power to the tractor.
The collection of Lavinia Dugan Smith (1870 - 1944) was transferred to the Museum in 1952. She has used the objects to educate children and the Museum continues to promote the use of collections to deepen public understanding of food, farming and the countryside. 

There are things to do and is suitable for all ages. The brass rubbing, 'find the rat' and dressing up opportunities, for example, need not only be for the younger visitors!

Guided tours are available mid-week and at weekends and include a look upstairs behind the scenes where a bewildering range of more objects can be found.

A programme of temporary exhibitions often linked to other events and activities, runs throughout the year and the adjacent museum garden can be explored via a specially-designed trail.
","Redlands Rd ","University of Reading","","Reading","Berkshire","RG1 5EX","0118 378 8660","http://www.reading.ac.uk/merl/collections/merl-collections.aspx","merl@reading.ac.uk","","","3","","","6","",""
"13043","The Race Hut","Enjoy the heart pumping adrenaline rush of taking part in a race event at The Race Hut. 

Our venue has been purposely designed and built to allow drivers of all abilities to enjoy the thrill of racing and compete in a great selection of cars on the very best circuits from around the world.

Watch the video to see some racing action from the venue. From green light to chequered flag, the adrenaline flows with up to 16 drivers on track competing against each other in exciting wheel to wheel action. We have race formats to suit corporate events, private groups, individuals, kids and stag parties. 

Our 16 pod race car simulation venue features state of the art race car simulators, licensed bar and delicious food options. Along with the latest technology we have great staff, a love of motor racing and a desire for putting on the best events.  We guarantee that we will always do our best to make sure you and your group have a exciting and enjoyable experience at The Race Hut.

So if you’re ready – Let’s Race!
","Slough Ice Arena","Montem Road","","Slough","Berkshire ","SL1 2QG","01753 534363","http://www.theracehut.com/","sales@theracehut.com","","","3","","","","7",""
"13044","Reading Museum","Reading Museum & Town Hall is a fine example of Victorian gothic architecture. The museum has eleven galleries displaying a fascinating range of objects from our collections and an exciting programme of temporary exhibitions.

You can find out more about what you can see and do in the What’s On and Collections areas of the website. Our Concert Hall houses the superb Father Willis Organ and plays host to a programme of events from classical music to comedy.
The family-friendly galleries are accessible to all. Help your child to explore the Museum using our trails, worksheets, picture bingo and handling bags. Palmers Cafe and the museum shop are on the ground floor of the museum. The cafe sells Fairtrade tea and coffee, cakes and snacks. In the shop you can browse a range of gifts that includes Huntley & Palmers biscuits and tins, Reading memorabilia and Victorian-style toys. Follow the links to find out more.
To help make the most of your visit please download the Access Guide from our website. We welcome all visitors with additional needs, please email us if you have any further questions.
If you are planning to bring a group please call us in advance to book (0118 937 3400) or email us.
","The Town Hall","Blagrave Street","","Reading","Berkshire ","RG1 1QH","0118 937340","http://www.readingmuseum.org.uk/","none","","","3","","","6","",""
"13045","Royal Windsor Racecourse ","The home of heart racing action, fantastic events and first-class hospitality!

With our fabulous island setting on the banks of the River Thames, a warm welcome from the minute you arrive, our wonderful Monday atmosphere and our superb hospitality, there's no better way to start your week!
Flat racing takes place at Royal Windsor 26 times a year from April to October. In the summer, regular Monday evening fixtures and theme nights attract large and enthusiastic crowds, and you can even travel to the racecourse by riverboat!
Examples of our fantastic theme nights in 2013 included: Ladies Night, Irish Night and our three day festival at the end of June encompassing Gentleman's' Day and Ronnie Scott's Night. We have also had our much loved family fun days and six great food and drink festivals as well as live music from chart-topping bands including Scouting For Girls, Toploader and Chas & Dave. Please see our website for forthcoming events.
There are three enclosures to watch the racing from - The Club, The Grandstand and The Silver Ring. All these areas have Tote betting facilities, bookmakers, bars, catering facilities.
","Maidenhead Road ","","","Windsor","Berkshire","SL45JJ","01753 498400","http://www.windsor-racecourse.co.uk/","office@windsor-racecourse.co.uk","","","","","","","7",""
"13046","Madejski Stadium","Reading Football Club offer a fantastic Royals Stadium Tours scheme!


Reading Football Club offer a fantastic Royals Stadium Tours scheme!

Look behind the scenes at Madejski Stadium and relive some of the most defining moments in the club's history, including the construction of the ground, two Championship titles, and playing alongside some of the best teams in the world in the Barclays Premier League. 

See the Championship Trophy before enjoying the view from the Directors Box. Live the life of your Royals heroes on a matchday before taking your place in the dressing room and heading pitchside.

Royals Stadium Tours are a perfect way to learn more about the club you love - and we can offer a package to suit you, whether as an individual or part of a group.

Please see the website for dates and prices.
","Bennett Road","","","Reading","Berkshire ","RG2 0FL","0844 249 1871","http://www.readingfc.co.uk/","tours@readingfc.co.uk ","","","","","","","7",""
"13047","Wellington Country Park","Wellington Country Park is situated in 350 acres of beautiful parklands, with lots of attractions.


It offers a safe, open air, fun filled venue for all the family, with facilities and attractions especially suited for children up to the age of 10.
To enjoy, we have several adventure play areas, a toddler’s area, indoor soft play (2 & under only), sand pits, slides, miniature railway (£1.50 extra), animal farm and petting barn (seasonal), nature trail maze, enchanted forest, water play, new 12 hole mini golf, welly wheels ‘automated jeeps (seasonal - £3 per car) and loads more play equipment to climb on and in; all will ensure a fun filled day.
Within woodlands, there are four nature trails to follow, taking in sights of our vast array of wildlife in their natural habitat. One trail allows you to get up close and personal to our resident herds of Red and Fallow deer.
Bicycles are NOT allowed in the Park unless they are fitted with stabilisers. Roller blades are also not permitted but children can bring their ‘Scooters’.
Surrounding our beautiful 35 acre lake is the perfect location for a family gathering, picnic or BBQ. (Sorry but please note, there is no boating, fishing or swimming in the lake).
Located just off the A33 between Reading and Basingstoke, on the Hampshire/Berkshire border.
","Odiham Road","","","Riseley","Berkshire ","RG7 1SP","01189 326 444","http://www.wellington-country-park.co.uk/","info@wellington-country-park.co.uk","","","","4","","","",""
"13048","Museum of Berkshire Aviation","Berkshire's dynamic contribution to aviation history is graphically re-captured at this museum.

Run as a charitable trust, the museum is at the historic site of Woodley Airfield, near Reading, U.K. - once the centre of a thriving aircraft industry. Miles and Handley Page aircraft built at Woodley are being re-constructed and exhibited along with fascinating pictorial records and priceless archives.
The museum welcomes group visits and runs an active educational programme for schools, linked to National Curriculum requirements, demonstrating the development of aviation techniques. Schools and other groups can be catered for outside normal opening hours, phone 0118 944 8089 for details.
","Mohawk Way","(off The Bader Way)","Woodley","Nr. Reading","Berkshire","RG5 4UE","","","MuseumBerksAv@gmail.com","","","3","","","6","",""
"13049","Ray Mill Island","The island is a little oasis. Walk along the river, watch the boats go through the lock.

The Island's name dates from when the Ray family managed a flourmill here. The site was acquired by Maidenhead Borough Council in 1950 from the Conservators of the River Thames.
At the northern end of the Island you will find Boulter's Weir, one of 50 remaining on the Thames. Managed by the Environment Agency, they maintain water levels so that boats can pass through the adjacent lock, control land drainage and ensure that water is available for public consumption.
As part of the 1979 Thames Salmon Re-habilitation Scheme, the last Salmon ladder to be built on the Thames was opened at Boulters Weir on 19 May 2000 by the Duke of Wellington. All the weirs from Teddington to Mapledurham now have Salmon ladders. 
Whilst clearing the stream to the rear of the island in the autumn/ winter of 2011 an old millstone was uncovered. This has been incorporated into the water inlet area at the head of the stream.
Facilities
 Aviary and Guinea Pig enclosure
 Picnic tables and benches
 wooden animals dotted around for imaginative play and small play area for children aged 3-8 years
 Toilets
 Cycle racks
 Cafe - privately run - Franca & Sons contact number is 01494 438320
 Please do not feed the squirrels on the island as they are wild animals and may bite
Due to the location and nature of this area it is monitored from September to April and can be closed due to high river levels making it unsafe for public access and a daily decision is made.
Access to Ray Mill Island is from Ray Mead Road cross the road bridge at Boulters Lock walk past the hotel (SL6 8PE) and cross the pedestrian bridge onto the island.
","Boulters Lock Island","","","Maidenhead","Berkshire ","SL6 8PE","","http://www.rbwm.gov.uk/web/parks_ray_mill_island.htm","","","","","4","5","","",""
"13050","Forbury Gardens","The Forbury Gardens, is an award-winning Blue Flag park in the heart of Reading town centre. 


Originally the forecourt of Reading Abbey, the grounds were laid out between 1856 and 1864 in typically structured Victorian style. The gardens are dominated by the Maiwand Lion, an 1886 memorial to the dead of the 66th Berkshire Regiment who fell during the battles of Maiwand and Kandahar at the end of the second Afghan War. Designed by George Blackall-Simonds, it is one of the world’s largest bronze statues at 31 feet long.

The Park also contains a fine band stand, dating from a little later and still the setting for regular band concerts every Sunday afternoon in the Summer months. 

The Forbury is also home to occasional special events such as Art in the Park and Outside:Inside music festival. 

The cafe is available throughout the warmer months.   
","The Forbury","","","Reading","Berkshire ","RG1 3EJ","none","none","none","","2","","4","","","",""
"13051","REME Museum of Technology","The museum tells the history of the Royal Electrical and Mechanical Engineers (REME) who's role is to recover and repair all Army equipment since 1942.


Explore REME's history, expertise and unique equipment through interactive displays. This large museum displays REME's history from its beings in 1942 up to the present day.  

The collections on display include weapons, medals, uniforms, specialist vehicles and electronic equipment. We recommend a minimum of two hours to visit the museum. 

The Mission of the REME Museum of Technology is to:
 
• Preserve the heritage of the Corps of Royal Electrical and Mechanical Engineers
• To promote a broader understanding of the functions of the Corps, its interaction with society and its role of technical support to the Army
• Provide an information source for members of the Corps, the public, researchers and educationalists
• Collect, conserve, display and interpret objects relevant to this mission
","Isaac Newton Road","Arborfield","","Nr. Reading","Berkshire","RG2 9NH","0118 976 3375","http://www.rememuseum.org.uk/","enquiries@rememuseum.org.uk","","","3","","","6","",""
"13052","The Racecourse Newbury","The Racecourse Newbury is over 100 years old and as such combines heritage with everything a modern sporting and events venue can offer.


Offering top quality racing all year round, The Racecourse Newbury is a fantastic premier track with a range of exclusive and contemporary facilities to enjoy throughout the day.

One of the country's finest, award winning racecourses is set in beautiful grounds in a central location. 30 top quality racedays are staged throughout the year.

You may wish to choose one of our private boxes, panoramic suites or the luxury facilities within our Royal Box, you'll benefit from our unique setting with stunning views and excellent level of service.


Newbury Racecourse is the perfect venue for exhibitions, meetings and conferences for up to 1000 delegates. Less than an hour's drive from Heathrow and Southampton airports, the racecourse is easily accessible from the M3 and is just minutes from the M4 Junction 13. There is also a railway station on site with direct connections. You may wish to combine business with pleasure by organising a raceday meeting or conference combined with one of our superb hospitality packages. 
","The Racecourse","","","Newbury","Berkshire ","RG14 7NZ","01635 40015","www.newbury-racecourse.co.uk","info@newbury-racecourse.co.uk","","","","","","","7",""
"13053","Nature Discovery Centre","A great place for all ages to see wildlife, take a walk or visit our interactive visitor centre.


With adventure playgrounds, lakeside walks and interactive wildlife displays, there's something for everyone. Explore the interactive wildlife games and learn about the local wildlife and natural history of the lake and reedbeds through our amazing displays. Fish tanks let you see what lives in the lake.

The Nature Discovery Centre runs a programme of events throughout the year such as Wildlife Explorer Days where you can learn bush skills, reptile days, bird box making, arts and crafts to name but a few. We also run events for adults such as gardening master classes.
","Muddy Lane ","Lower Way ","","Thatcham ","Berkshire ","RG19 3FU ","01635 874 381","http://www.westberks.gov.uk/index.aspx?articleid=3791","naturecentre@westberks.gov.uk","","","","4","5","","",""
"13054","Shaw House","Experience learning, enjoyment and inspiration at this beautiful Elizabethan Grade I listed building close to Newbury.


Shaw House was completed in 1581 by Thomas Dolman, a member of a successful family who had made their fortune from the cloth industry in Newbury. This impressive manor has witnessed centuries of political and social tension and evidence exists for its contribution to some of the most notable events in English history.

The striking nature of its architecture established the Dolmans' position as pre-eminent in Newbury and the surrounding area. The Dolman family have been significant to the development of Shaw House; in all it was passed down through six generations between 1554 and 1728. During this time visitors to Shaw included several kings and queens on their royal progresses around the country as well as courtiers travelling from London to Bath. 

It then became the setting for part of the Second Battle of Newbury in 1644, acting as headquarters for Charles I, while hand-to-hand battle was fought in the gardens between his army and that of the Parliamentarians. 

Over the succeeding centuries Shaw House has been the country retreat of a Duke, the residence of an 18th century investor who had interests in the West Indian sugar plantations, and the home of a large Victorian family. At the outbreak of World War II the house was requisitioned by the War Office as accommodation for troops. Following the bombing of Newbury Senior Council schools in 1943 it took on its final role as a school for many generations of Newbury children. Having stood empty for over a decade a major restoration programme has rescued it from near dereliction and left it refurbished for the benefit of the community.

Shaw House re opens to the public, following winter closure, at February half term each year. We are then open most weekends and School Holidays until September. Please see the website for more details.
","Church Road","","","Newbury","Berkshire","RG14 2DR","01635 279279","www.shawhouse.org.uk","shawhouse@westberks.gov.uk","","2","3","","","","",""
"13055","Alexandra Gardens","Relaxing park, close to the castle, with a newly developed crazy golf course, plus other facilities for all ages. The fountain looks especially pretty when lit in the evening.

Plans to create a riverside garden in this area date from 1893 although the possibilities must have been discussed for some years prior to this, as in 1895, land had been purchased, and by 1902 the gardens were sufficiently complete to permit the planting of a London Plane tree in August 1902 to celebrate the Coronation of Edward VII and his Queen, Alexandra.
In June 2009 The Dyson Memorial Fountain (which had been moved from its Barry Avenue location) was extensively refurbished and now stands in the south-east corner by the Goswell Road entrance of the Park. The Memorial, in the form of a drinking fountain, commemorates Thomas Dyson who founded 'Dyson and Sons', pianoforte dealers of Thames Street in 1865 and who became Mayor in 1890. Thomas Dyson actively promoted improvements in the town, such as the construction of The Promenade.

Facilities
 Public toilets can be found in the adjacent Visitor Centre.
 Kiddies Corner Children's Fun Fair 
privately owned, charges incurred when using this facility
 Extreme Motion
 Skate & cycle hire, 18 hole adventure golf course, bungee trampoline
 Privately owned, charges incurred when using this facility
 Car Parking available nearby at cost on Barry Avenue or in the Alexandra Gardens Car & Coach Park
","Alma Road ","","","Windsor","Berkshire ","SL4 3HY","none","http://www.rbwm.gov.uk/web/parks_alexandra_gardens.htm","none","","","","4","","","",""
"13056","Teamworks Karting Reading","A state-of-the-art circuit featuring fume-free karts with super-fast aceleration! 

Teamworks Karting Reading pairs the best-trained staff and most responsive karts alongside a huge Thames Valley race-track to offer the best racing experience around - and it's open 7 days a week!
 
• The fastest indoor karts in the UK
• Exhilarating & challenging indoor race track
• 360-degree spectator gallery overlooking the whole track
• Fully-licensed bar & extensive catering options
• Just minutes from Reading town centre
• Two large conference & party rooms
","8 Bridgewater Close","","","Reading","Berkshire ","RG30 1JT","0121 703 6165","http://www.teamworkskarting.com/reading","info@teamworkskarting.com","","","3","","","","",""
"13057","Absolutely Ten Pin","Award winning ten-pin bowling.

We are proud to offer 18 bowling lanes 4 of which are situated in our exclusive VIP suite, American Pool Tables, a delicious food service and all your favourite drinks served from our late night bar.
Add to that all the latest games machines, Starbucks coffee and Sky Sports on massive plasma screens and you’ve got the ultimate experience in Slough!
Absolutely Ten Pin is the perfect venue for parties, celebrations and relaxing with family or friends. You can just turn up and play or book your lane ahead of time to guarantee no waiting around! 
","Salt Hill Park","Bath Road","","Slough","Berksire ","SL1 3SR ","08450 262 466","http://www.absolutely-tenpin.co.uk/","via website http://www.absolutely-tenpin.co.uk/contact.html","","","3","","","","7",""
"13058","Berkshire 4x4","4x4 and off road driver training.


Get behind the wheel and experience the fun, exhilaration and sheer adventure of 4x4 driving. A challenging course will test your driving skills as you tackle steep climbs, drops, gullies and side slopes.
","The Activity Centre","Sandford Lane","","Wokingham","Berkshire ","RG10 0SU","0118 3271525","http://www.berkshire4x4.co.uk/","none","","","","4","","","","8"
"13060","Absolutely Karting","The most excitement you can have on four wheels! It's fast, it’s furious and it’s a whole lot of fun...


Feel the thrill of flying around the track at high speeds trying to plan the next corner. If you want to shave valuable seconds off your lap time then our trained staff are more than willing to give out some advice which is sure to improve your time.
Our Karting track has 270cc GT5 karts that compliment the demanding new track with its 50 metre straight! 

For children we have Cadet Karts - the single engine karts suitable for ages 8 to 13.
With free parking and an easy to find location Absolutely Karting in Maidenhead will blow your socks off!
","The Arena","Stafferton Way","","Maidenhead","Berkshire ","SL6 1AY","08450 262 466","http://www.absolutely-karting.co.uk/","info@absolutely-karting.co.uk","","","3","","","","",""
"13061","Sunningdale Golf Club","Sunningdale is the quintessential English Club and as close to Augusta National as any club in the British Isles. Golf is the only thing that matters at Sunningdale. Alistair Tait - Golf Week


Sunningdale’s Old Course, which opened in 1901, was laid out by Willie Park Jnr. It is pure enchantment that characterizes Sunningdale Old. Virtually every hole is played in splendid – and beautiful – isolation, and in harmony with nature... There is subtlety here, a measure of drama, and a wealth of that one indispensable ingredient, pleasurable excitement... No wonder it may be the most beloved inland course in the British Isles. 
 
All that being said, there are those who like the New Course, which opened in 1923, at least as well…The New is perhaps a bit more rugged than the Old, a bit more masculine, if you will...... This is rich and handsome and challenging golf, Harry Colt in top form. 

Source: All Courses Great and Small - JAMES W. FINEGAN

Sunningdale Pro Shop is run by fully qualified professionals, who are available seven days a week to help enhance and assist during your time at Sunningdale. Should you need any further information that is not provided on the website, please feel free to contact them.

Welook forward to welcoming you at Sunningdale.



Sunningdale welcomes visitors all year round, Monday through to Thursday. 
","Ridgemount Road","","","Sunningdale","Berkshire ","SL5 9RR","01344 621 681","http://www.sunningdale-golfclub.co.uk/","info@sunningdalegolfclub.co.uk","","","","4","","","","8"
"13062","Mapledurham House","Mapledurham is an oasis of peace, natural beauty and history.

Over the years we have welcomed hundreds of thousands of visitors to Mapledurham to view the House, discover the old watermill and relax along the banks of the Thames for a picnic or enjoy a delicious cream tea.
The location has attracted many film and television productions including Midsomer Murders and continues to be enjoyed by visitors and holiday- makers alike.
In 2011 Mapledurham was proud to receive the Beautiful South GOLD Award for Excellence 2011 from the UK's Tourism South East. And in 2012 we are proud to announce a Silver award to add to our collection.
The House and Watermill are open on Saturdays, Sundays and Bank Holidays from Easter Saturday until the end of September and for previously arranged party visits midweek.  
","Mapledurham ","","","Reading","Berkshire ","RG4 7TR","0118 972 3350 ","http://www.mapledurham.co.uk/","enquiries@mapledurham.co.uk","","2","3","","","","",""
"13063","Absolutely Ice - Slough Ice Arena","The one-stop ice entertainment venue for all the family!

At Absolutely Ice we have something for everyone with sessions for the entire family, disco sessions for the younger clubber who wants something different to do, and serious training facilities for the dedicated skater, and a full hockey programme including Slough Jets, SJJA and Ladies and Recreational teams.
Weekend day-times we’re dedicated to families with family skating and discos.
During the week we run a timetable of patch ice for dedicated skating, lunch time training ice for those keen for a skate in their lunch-hour and the general skating sessions from 10:00am onwards.
We’re also home to Formula Freeze for the Go Karting thrill with the on ice Chill. Feel the need for speed in our super ice adapted Zip Karts.
","Montem Lane","","","Slough","Berkshire ","SL1 2QG","01753 894810","http://www.absolutely-ice.co.uk/","info@sloughleisure.co.uk","","","3","","","","",""
"13065","West Berkshire Brewery","We champion traditional brewing techniques and showcase British hops to produce high quality, distinctive and award-winning real ales.

The West Berkshire Brewery is a microbrewery, founded in the summer of 1995 in a dilapidated building behind The Pot Kiln in Frilsham. It was within the first year of operations that the brewery won their first award. WBB now brews exclusively in Yattendon at a rate of 80 barrels per week
We are proud to showcase whole British hops and a traditional, sustainable brewing technique in our mission to produce high quality, distinctive and award-winning real ales.
Our goal is simple – to brew great tasting beers for everyone to enjoy and we have built a strong reputation and won many awards doing exactly that.
Our extremely popular brewery tours take place monthly. They are great fun as everyone gets to see and understand how the beer is made from the raw ingredients to the finished article and, of course, there is plenty of beer to sample.
A tour, three pints of beer and a glass to take home are included in the price of £12.50.
Vouchers for the brewery tour make an ideal gift for friends and family.
They fill up fast so please book soon via our online shop.
Our beers can be drunk across the south of England and can also be bought at our shop in Yattendon, Berkshire and online. Shop opening hours are 10.00 am – 4.00 pm, Monday to Saturdays.
","The Flour Barn","Frilsham Home Farm","Yattendon","Thatcham","Berkshire ","RG18 0XT ","01635 202968 or 01635 202638","http://www.wbbrew.com","info@wbbrew.co.uk","","","3","","","","","8"
"13066","Horseshoe Lake Activity Centre","We can provide private tuition, one off taster sessions, progressive weekly courses, multi-activity packages, team-building programmes and casual hire.


The team at Horseshoe Lake Activity Centre has a wealth of experience designing activity programmes that are tailor-made to meet the requirements of the individual or group.

Whether you’re looking for a relaxing couple of hours or an exciting learning experience, we have all sorts of outdoor pursuits for you to discover. You might even find your new favourite hobby!

• Dinghy Sailing
• Windsurfing
• Kayaking
• Canoeing
• Powerboating (RYA Training only)
• Stand Up Paddleboarding (SUP)
• Sit On Top Kayaking (SOT)
• Pedalos
• Row Boats
• Raft Building (take the ‘HLAC Raft Build Challenge’ for a unique team event)
• Dragon Boating
• Archery
• Low Ropes Obstacle Course
• Problem Solving
• Volleyball

Our sessions are delivered by professional instructors and coaches, all of whom are trained to current RYA & BCU standards, hold valid First Aid certificates and have been CRB checked.
","Mill Lane ","","","Sandhurst","Berkshire ","GU47 8JW","01252 871808 ","http://horseshoelakeactivitycentre.co.uk","","","","","4","","","",""
"13067","History On Wheels Museum","A truly unique collection of MOTORS, both Military and Civilian, MILITARIA, from 1900 to the 1950’s.


Situated in the South East of England, in Eton Wick, close to Eton College and within sight of Windsor Castle, History On Wheels is more than just a motor museum.

The Museum was first opened to the public in 1980, and as the name implies, within this Museum can be found a truly unique collection of MOTORS, both Military and Civilian, MILITARIA, from 1900 to the 1950’s, from all conflicting Nations, and MEMORIES, illustrating artefacts of all types from both the civilian and wartime home fronts.

Take your time to wander around our exhibition halls. Take in the sights, sounds & smells of a bygone time. There is something to enthral visitors of all ages, from Grandparents to Grandchildren.

In the main gallery No. 3 are illuminated display cabinets, housing what is believed to be the largest collection of Princess Diana memorabilia in the UK. Commemorating the Royal Wedding, births of Princes' William and Harry, Royal visits, etc.

Enjoy a Snack and Drink at the recently reconstructed and enlarged N.A.A.F.I. Canteen, which has been fully decorated with dozens of WWl and WW2 period NAAFI and WW1 Army Canteen Service associated items and adjoining Tea Room where you can either sit at the tables or the breakfast bar with its panoramic uninterrupted views of Windsor Castle.
","Longclose House","Common Road","Eton Wick","Nr Windsor","Berkshire ","SL4 6QY ","01753 862637","http://www.historyonwheels.co.uk","info@historyonwheels.co.uk","","","3","","","6","",""
"13068","The Living Rainforest","Explore the rainforest without leaving the UK. The Living Rainforest is home to 700 species of plants and animals. Watch birds, butterflies and lizards roam free in our tropical glasshouses...


Explore the rainforest, and discover its wonders for yourself. Look out for free roaming lizards, birds and butterflies – you never know where they will appear next! Plus … monkeys, a crocodile, toucans, snakes and much more. See some of the world’s most popular food plants – bananas, coffee, cocoa, ginger, vanilla… and plants that give us life-enhancing medicines, cosmetics and building materials.  

Shop, cafe, parking and other facilities
• Shop with rainforest-themed gifts and educational toys and games
• Cafe serving a range of snacks and drinks, including rainforest-friendly ground coffee
• Outside children’s play and picnic area with a jungle feel
• Free parking, coaches welcome

Access for all
The Living Rainforest is fully wheelchair accessible. The centre is family and baby friendly, with nappy-changing and bottle warming facilities available.
","","","","Hampstead Norreys","Berkshire ","RG18 0TN","01635 202444","http://www.livingrainforest.org/","enquiries@livingrainforest.org","","","3","","5","","",""
"13069","Tenpin Maidnehead","Will it be a strike, a spare or a gutter ball?

When it comes to bowling at Maidenhead, we're the experts. At Tenpin you'll find plenty of lanes where you can show off your strike to your friends, family or colleagues. We offer children, teen and adult parties, corporate celebrations, great nights out and cures for boredom, as well as tasty food and refreshing drinks from our Beach Road Café and fully licensed bar. And when you're done bowling, you can visit the arcades, go for a game of pool or stalk your enemy in our state-of-the-art Sector 7 Laser arena.
","St. Clouds Way","Holmanleaze","","Maidenhead","Berkshire ","SL6 8AW","0871 873 3150","http://www.tenpin.co.uk/maidenhead/","","","","3","","","","7",""
"13070","Nirvana Spa","Our friendly staff will tend to your every need at the UK's Largest, Purest, Award-Winning Spa.


At Nirvana Spa we provide the ultimate in relaxation for you with a superb variety of spa facilities that will leave you feeling restored, relaxed and refreshed. Come and experience a combination of 15 natural aquifer fed pools and spas which include our invigorating Surf Pool with its 53 station hydrotherapy jets or take in the grandeur of the iconic Roman and Relaxation Rooms which will provide a great opportunity for you to unwind.

During Spring and Summer why not enjoy the outdoor patio area where you will be able to lounge around the pool and enjoy our 4 mini spas.

If you are looking for complete tranquillity then book one of our incredible floatation experiences in the Celestial Floatation Pool or you can indulge yourself in the peaceful surroundings of our Tepidarium Nirvana Room with its wonderful heated loungers. Why not pamper yourself with our comprehensive range of treatments from leading quality brands such as Decleor, Germaine de Capuccini, Jessica & Celestial.
","Mole Road","Sindlesham","","Wokingham","Berkshire ","RG5 4DJ","0118 989 7500","http://www.nirvanaspa.co.uk/"," info@nirvanaspa.co.uk","","","3","","","","","8"
"13072","UK Wolf Conservation Trust","Founded in 1995, the UKWCT supports education, conservation and research. 


The Trust is currently home to 11 wolves, including only Arctic wolves in UK. Events are held throughout the year for adults these include Howl Nights, Wolf Keeper Days, Photography days and Wolf Walks. During the school holidays we also host children's events for those over 6 years old: these include wolf walks, creative writing workshops: wolf keeper days and depending on the time of year pumpkin parties and Easter egg hunts. 

All events require ADVANCED booking as numbers are strictly limited. The Trust also has several Open Days each year during which anyone can attend. Further information can be found on the Trust's website.

Open all year round but visit must be pre booked.
","Butler's Farm","Beenham","","Reading","Berkshire ","RG7 5NT","0118 971 3330","http://www.ukwolf.org/","ukwct@ukwolf.org","","","","4","5","","",""
"13073","Greenham and Crookham Commons","The commons make up the largest area of lowland heath in Berkshire.


After many years as a military site, Greenham and Crookham Common has been restored and reopened to the public. 

Greenham and Crookham Commons are designated as a sight of special scientific interest and are home to many rare and endangered plants and animals. The commons make up the largest area of lowland heath in Berkshire and contain ancient woodlands, alder-lined gullies, remnants of valley mire, ponds wetland and grassed rich in wildflowers. Exmoor ponies and cattle graze here. It is important to stay on paths and keep dogs under close control in order to avoid damage to rare plant communities and disturbance of wildlife and livestock.
","Nature Discovery Centre","Muddy Lane","Lower Way","Thatcham","Berkshire ","RG14 2AF","","","awallington@westberks.gov.uk","","","","4","5","","",""
"13074","The Kennet Horse Boat Company","Traditional horse-drawn and motorised canal boats along the Kennet and Avon Canal. 


The Kennet Horse Boat Company is a small, family run business that operates two traditional canal barges for both public boat trips and private charters. The company is unique in having both a motorised and a horse drawn barge. Painted in the traditional rose and castle style, they form an important part of England's heritage. The company was established in 1970 by Bill and Sue Fisher and has been run by the Butler family since 1980. The business is now owned and run by the second generation of the family, son Stephen Butler and his wife Charlotte who took over the business from Bob and Jenny in January 2004. A new addition to the business is the luxury self-steer narrowboat ‘Cygnet’ - now available for day hire. 

Refreshments, coach parking. Suitable for all age groups.

Boat Route: Return trips from Newbury and Kintbury.
","1 Holt Road","Kintbury","","Hungerford","Berkshire ","RG17 9UY","01488 658 866","http://kennet-horse-boat.co.uk/","info@kennet-horse-boat.co.uk","","","","4","","","7",""
"13075","Snelsmore Common Country Park","Heathland, valley bog and woodland. Suitable for most quiet recreational activities such as walking and picnicking. Walking distance to Donnington Castle.


Snelsmore Common is a heathland site with a series of valley mires, surrounded by woodland. It is an important area for ground nesting birds such as nightjar and woodlark and the area is a site of special scientific interest. There are many footpaths and tracks on the common as well as bridleway for horse riders and cyclists. The site provides a habitat for many rare and protected species so it is important to stay on path and keep dogs under close control. An area is set aside for picnics and there are toilet facilities.
","Wantage Road","","","Newbury","Berkshire ","RG14 3BQ","01635 874381","http://www.westberks.gov.uk/index.aspx?articleid=7957","amoore@westberks.gov.uk","","","","4","5","","",""
"13076","The Stables Spa","This exclusive facility combines exquisite interiors with stunning style and innovation to create a haven of tranquillity in the 'Harte of Windsor'.


Our aim is to offer hotel guests, members and local residents, one of the finest spa experiences in Berkshire in an exclusively adult environment.

We want every visitor to the Stables Spa to enjoy their time with us in the Spa and we have created this website to give you the information you need to prepare for your visit and a taster of what to expect on arrival, and when you (reluctantly) leave us at the end of your visit.

To get the most from your treatments and see what treatments and services are available, please view the ""Spa & Treatments"" page on their website.
","The Harte & Garter Hotel & Spa","High Street","","Windsor","Berkshire ","SL4 1PQ","0844 855 9131 ","http://www.akkeronhotels.com/Hotels/Southern-England/The-Harte-and-Garter-Hotel/Leisure","via website - http://www.akkeronhotels.com/Hotels/Southern-England/The-Harte-and-Garter-Hotel/Leisure/Contact-Us","","","3","","","","","8"
"13077","The Pavilion Spa ","An oasis of calm and relaxation, set within 376 Acres of spectacular National Trust Managed Gardens.


Tucked away in the heart of the Berkshire countryside within easy access of London and Heathrow, The Pavilion Spa offers a unique historic experience in breath-taking rural surroundings like nowhere else.

Situated in National Trust grounds inside the famous Walled Garden, made famous by its association with the Profumo affair in the 1960s, The Pavilion Spa provides an oasis of calm and relaxation.

This haven of tranquillity offers an impressive list of beauty and holistic treatments for our House guests and Club Members from exclusive brands such as Anne Semonin and Carita within the six treatment rooms.

Facilities:
• Heated Outdoor Pool
• Outdoor Canadian hot tubs
• Whirlpool spas
• Indoor Swimming Pool
• 6 Treatment Rooms
• Fully equipped Gymnasium (featuring state of the TechnoGym equipment including the a Plurima and Powerplate)
• Separate Men's and Ladies' Steam Rooms and Sauna.
• The Walled Garden is a secluded suntrap, with an array of sunbeds next to the pool.

In addition guests are also able to enjoy:
• 376 Acres of spectacular National Trust Managed Gardens (including Jogging and Walking trails)
• Tennis Courts (indoor and outdoors)
• The Cliveden Flotilla of Vintage Launches (available April to October)
","Cliveden House & Pavilion Spa ","","","Taplow","Berkshire ","SL6 0JF ","01628 668561","http://www.clivedenhouse.co.uk","via website - http://www.clivedenhouse.co.uk/hotel/contact/index.aspx","","","3","","","","","8"
