"Unique Ref No.","Attraction Name","Copy","Address 1","Address 2","Address 3","Address 4 (Town)","Address 5 (County)","Post Code","Telephone","Website","Email","Beaches & Coast              (1)","Historic sites, Homes & Gardens        (2)","Indoor Activities        (3)","Outdoor Activities       (4)","Wildlife & Nature               (5)","Museums & Galleries       (6)","Entertainment      (7)","Indulgence      (8)"
"31001","Ascott House and Gardens","Jacobean house with superb collections and gardens.


This half-timbered Jacobean farmhouse, transformed by the de Rothschilds towards the end of the 19th century, now houses an exceptional collection of paintings, fine furniture and superb oriental porcelain.

The extensive gardens, covering over 30 acres, are an attractive mix of formal and natural, with specimen trees and shrubs and some unusual features.

The House and Gardens are open to members of the public between March and September each year.
Please note that we do not accept card payments.
","Wing","","","near Leighton Buzzard","Buckinghamshire","LU7 0PR","01296 688242","http://www.nationaltrust.org.uk/ascott/","ascott@nationaltrust.org.uk","","2","3","4","5","","",""
"31002","Bekonscot Model Village & Railway","The world’s oldest and original model village, opening for the first time in 1929.


With over 80 years of history, huge model railway, 1.5 acres of well-kept gardens andfinely detailed model buildings Bekonscot is a great day out for everyone. 

Stuck in a 1930s time warp, see England how it used to be, and discover a wonderful little world tucked away from the hustle and bustle of eveyday life. 

Enid Blyton’s book “Enchanted Village” is based on Bekonscot.

We have a tea room, serving fresh homemade food and hot drinks. There is a large picnic area, with picnic tables and rain shelters. You are welcome to bring your own picnic, or enjoy some of our fresh homemade food.
","Warwick Road","","","Beaconsfield","Buckinghamshire","HP9 2PL","01494 672919","http://www.bekonscot.co.uk","info@bekonscot.co.uk","","","","4","","","7",""
"31003","Boarstall Duck Decoy","A rare survival of a 17th century duck decoy.

The Boarstall Duck Decoy is one of only a few remaining in the country and provides a fascinating insight into a rare aspect of British rural life.

The Duck Decoy is surrounded by ancient woodland, with a stunning array of spring flowers including a large display of bluebells. There is an abundance of bird life, with many nesting and feeding sites, the wood also makes a home for several species of bat.
","Boarstall","","","near Bicester","Buckinghamshire","HP18 9UX","01280 817156","http://www.nationaltrust.org.uk/boarstall-duck-decoy/?p=1356299705347","boarstalldecoy@nationaltrust.org.uk","","","","4","5","","",""
"31004","Boarstall Tower","14th-century moated gatehouse and beautiful gardens.

14th-century moated gatehouse, built by John de Haudlo and once part of a fortified manor house, set in gardens. Discover seven centuries of history on one of our guided tours. 2012 marked the 700th birthday of this amazing tower.
Boarstall Tower is open every Wednesday from May to September from 2-5pm. 
","Boarstall","","","near Bicester","Buckinghamshire","HP18 9UX","","http://www.nationaltrust.org.uk/boarstall-tower/","boarstalltower@nationaltrust.org.uk","","2","3","4","","","",""
"31005","Buckingham Chantry Chapel","15th-century chapel, restored by Gilbert Scott in 1875.

Tucked away in a cosy corner of the market square, discover the oldest building in Buckingham. It’s had many uses and today it’s a thriving second-hand bookshop and coffee shop. While away the time in this atmospheric and tranquil setting with a good book and a delicious locally made snack. Built in the late 12th century as part of St John’s Hospital, the chapel was granted to the Master of the House of St Thomas of Acon in London, who converted it into a chantry chapel.
In 1540 the chapel became the home of the Royal Latin School. It was a school from 1552 until 1907. By 1781 it was also a Sunday School, said to be only the second such school in the country. The chapel was twice restored by public subscription, in 1857 and again, under the direction of Sir George Gilbert Scott, R.A. in 1879. In 1912 the chapel was bought by public subscription and given to the National Trust.
","Market Hill","","","","Buckinghamshire","","","http://www.nationaltrust.org.uk/buckingham-chantry-chapel/?p=1356300433126","","","","","","","","",""
"31006","Old Thatch Gardens","Beloved home to the world famous author Enid Blyton from 1929-1938.


Old Thatch, a 17th-century thatched cottage, is situated close to the River Thames on the edge of the Chiltern Hills, between Marlow and Bourne End. Beloved home to the world famous author Enid Blyton from 1929-1938, it was where she was inspired to write over forty books and plays, as well as a series called The Old Thatch. Enid was delighted by the garden and soon set about making it her own until she left in 1938.

Old Thatch is now owned by the garden designer Jacky Hawthorne who has enhanced the spirit of Old Thatch and introduced structure to the garden while at the same time preserved a sense of the past. The lovely grey, sagging wood of the old arbour has been retained, as has the original well, an enticing glimpse of a former way of living.

The unusual shape of the garden, which is just under two acres, lends itself naturally to the creation of different areas. There are different types of gardens within Old Thatch which will you will discover as you wander around – from formal to informal, from mono-colour to multi-colour.

The gardens include the Umbellifer Garden, the Formal Garden, the Water Garden, the Lavender Terrace and the Rose Arbour. The Cottage Garden is designed around a stone circle and a small circular pond built by Enid Blyton.

Old Thatch Gardens is a quintessentially English garden of peace and tranquility. Although it is the former home of Enid Blyton and of interest to Blyton enthusiasts, to avoid disappointment please note that the house is not open to the public and there are no play areas for children.
Teas and homemade cakes available.
","Coldmoorholme Lane","","","Bourne End","Buckinghamshire","SL8 5PS","01628 527518","http://www.oldthatchgardens.co.uk/","info@oldthatchgardens.co.uk","","2","","4","","","",""
"31007","Buckingham Old Gaol Museum","Over 15 zones of artefacts, stories and history.

Located in the heart of historic market town of Buckingham, the iconic Old Gaol was built in 1748 in the style of a castle, with later additions in 1839 by the famous local architect George Gilbert Scott. It is one of the key visitor attractions of Buckingham.
Buckingham Old Gaol Museum tells the fascinating story of Buckingham and rural life, including the Flora Thompson Collection (Lark Rise to Candleford author) and Buckinghamshire Military Museum Trust exhibits. A number of the original cells form part of the museum visitor's journey which includes 16 zones:
• The Governor's House
• Buckingham Now and Then
• Fossils to Romans
• Anglo Saxons to Tudors
• Civil War and Agriculture
• Victorians,Edwardians and Civic Pride
• WWI and WWII
• Webbs Stores
• Buckingham's early Police
• Tradesmen's Tools
• Lace
• Roads, rails and canals
• Prison Life
• Bucks Military History
• Home of Flora Thompson
• The Courtyard, former exercise yard 
The Old Gaol is open Monday to Saturday, 10am to 4pm all year round. Last admission to the museum is half an hour before closing. The Old Gaol hosts a wide range of special events during the year.
","Market Hill","","","Buckingham","Buckinghamshire","MK18 1JX","01280 823020","http://buckinghamoldgaol.org.uk/","info@buckinghamoldgaol.org.uk","","2","3","","","6","",""
"31008","Buckinghamshire County Museum & Roald Dahl Childrens Gallery","An exciting programme of changing exhibitions and events for all ages throughout the year.


Buckinghamshire County Museum in the heart of historic Aylesbury is a fascinating place to visit for all ages. Discover the county's natural and cultural heritage together with an exciting programme of changing exhibitions and events throughout the year. Enjoy the friendly cafe, relax in the walled garden or browse in the gift shop. For hands-on fun and Roald Dahl magic visit the fabulous Roald Dahl Children's Gallery.
","Church Street","","","Aylesbury","Buckinghamshire","HP20 2QP","01296 331441","http://www.buckscc.gov.uk/museum","museum@buckscc.gov.uk","","","3","","","6","",""
"31009","Buckinghamshire Railway Centre","Experience the Golden Age of Steam!


The Buckinghamshire Railway Centre, a 25 acre working Steam Museum, with one of the UK’s largest collections of locomotives, rolling stock and railway memorabilia. A re-created country station in the heyday 
of steam travel, offers steam train rides on certain days. As well as the 1890s station, there is an impressive Visitor Centre – the former Oxford Rewley Road Station - with Refreshment Rooms, Gift Shop, a Royal Dining Coach from 1901, and a coach used by Winston Churchill and Dwight D. Eisenhower for secret war strategy planning meetings.
","Quainton Road Station","Quainton","","Nr Aylesbury","Buckinghamshire","HP22 4BY","01296 655720","http://www.bucksrailcentre.org","office@bucksrailcentre.org","","","","4","","","",""
"31010","Long Crendon Courthouse","Medieval courthouse.

The courthouse is a fine example of an early 15th-century timber-frame construction, set in an idyllic village. The ground floor (now tenanted) was the village poor house. You can visit an exhibition on the village in this property. Please note, there are very steep stairs.
The courthouse was the base for parish activities for four hundred years and was the venue for the annual manorial court which dealt with tithes and crimes such as selling bad fish, brewing without a licence, or overcharging customers.
","Long Crendon","","","Aylesbury","Buckinghamshire","HP18 9AN","01280 817156","http://www.nationaltrust.org.uk/long-crendon-courthouse/","longcrendon@nationaltrust.org.uk","","2","3","","","","",""
"31011","Pitstone Windmill","A rare and striking example of an early form of windmill.

This unusual survivor is one of the oldest windmills in Britain. Pitstone windmill ground flour for the village for almost three hundred years until a freak storm in the early 1900s left it damaged beyond economic repair.
Donated to the National Trust in 1937 Pitstone Windmill has been faithfully restored by a dedicated team of local volunteers. Today you can explore both the inner and outer workings of the windmill; including the massive post upon which the mill turns and the tail pole which the miller used to position the sails in the wind, while also taking in spectacular views of the surrounding Chilterns countryside.
","Ivinghoe","","","Leighton Buzzard","Buckinghamshire","LU7 9ER","01442 851227","http://www.nationaltrust.org.uk/pitstone-windmill/","pitstonemill@nationaltrust.org.uk","","2","","4","","","",""
"31012","Roald Dahl Museum and Story Centre","A great little award-winning and family-friendly Museum.


This great little award-winning Museum, aimed at 6 to 12 year olds and their families, has three fun and fact-packed galleries full of hands-on displays and activities. Peek into Roald Dahl's original Writing Hut, delve into his archive on touch-screen monitors, sit in his Writing Chair, make up your own Gobblefunk words and create your own stop-frame animated story.
There are always free craft activities on offer, and an exciting range of workshops, events, and free storytelling sessions are run in the school holidays and at weekends.
On-site, Café Twit serves a family-friendly range of home-made food, whilst the shop is a treasure trove of books, toys, and gifts.
Visit the Whats On pages of the website for details of our workshops and events.
","81-83 High Street","","","Great Missenden","Buckinghamshire","HP16 0AL","01494 892192","http://www.roalddahlmuseum.org","admin@roalddahlmuseum.org ","","","3","","","6","7",""
"31013","Stowe","Breathtakingly beautiful landscape gardens.

Embark on a journey, follow in the footsteps of 18th century tourists and immerse yourself in 250 acres of stunning, informal landscape.
A short walk down the drive and a vast landscape opens up rewarding you with a breath-taking view across the lake. With over 40 historic temples and monuments, each with their own story, our gardens incorporate history, nature and beauty in majestic surroundings.
The sheer size and space make it perfect for those who love the outdoors and enjoy walking whatever the weather, with each season bringing its own delights and unique sights. Activities, events and a wide range of walks and trails make it an ideal day out for the family throughout the year.
","","","","Stowe","Buckinghamshire","MK18 5EQ","01280 817156","http://www.nationaltrust.org.uk/stowe/","stowe@nationaltrust.org.uk","","2","","4","","","",""
"31014","West Wycombe Park","The elegant Palladian home of the Dashwood family and historic village.

West Wycombe Park is one of the most theatrical and Italianate of all English country houses and the Dashwood family home for over 300 years. Set in 45 acres of landscaped park, the house as we see it today is the creation of the 2nd Baronet in the 18th century.
This Palladian gem is frequently featured in screen adaptations of literary classics such as Cranford and Little Dorrit and more recently in the television series, Downton Abbey.
West Wycombe is a historic village with bags of charm. Its streets are lined with cottages and inns of varying architectural styles, dating from the 16th century through to the 18th century.
Explore the village and then make your way up West Wycombe Hill for breathtaking views over the surrounding Chilterns countryside and designed landscape of West Wycombe Park and village.
Other delights in the village include churches, a mausoleum, caves (not National Trust) and a variety of gift shops and stores.
","","","","West Wycombe","Buckinghamshire","HP14 3AJ","01494 513569","http://www.nationaltrust.org.uk/west-wycombe-park-and-village/","westwycombe@nationaltrust.org.uk","","2","3","","","","",""
"31015","Waddesdon Manor","Magnificent house and grounds in the style of a 19th-century French chateau.


Surrounded by views of Oxfordshire, the Chilterns Hills, the Vale of Aylesbury and just a train ride away from London, Waddesdon Manor, is an ideal place for relaxing with family and friends.
Explore this French Renaissance-style chateau built by Baron Ferdinand de Rothschild in 1874 to entertain the fashionable world and to house his collection of fine art. We're continuing the tradition today of entertainment and hospitality with events celebrating food and wine, and opportunities for you to explore our history, collections and gardens through changing exhibitions and special interest days.
Step back in time in the Victorian style gardens, gaze at flamboyant colours on the parterre amid the ornate fountains and statuary. Unearth the rare and exotic birds housed in the roccoco style Aviary found in the heart of the gardens.
Or you can spend a fun filled day with the family, be an adventurer in the woodland playground which winds through the trees, making use of the natural environment to create a magical area to play. Why not explore the trail around the gardens; hunt for bugs and spot wildlife along our woodland walk?
There's fresh, homemade food including cakes and other treats for you in our restaurants and food-to-go outlets. Shop for wine, great gifts and unique pieces inspired by the collection in our Manor shop. Evoke memories past with pocket money toys and old fashioned confectionary at the stables shop and accessories for the home and garden at the plant centre.
","Waddesdon","","","Nr Aylesbury","Buckinghamshire","HP18 0JH","01296 653226","http://www.nationaltrust.org.uk/waddesdon-manor/","waddesdonmanor@nationaltrust.org.uk","","2","3","","","","",""
"31016","Bletchley Park","Once Britain's Best Kept Secret, today Bletchley Park, Home of the Codebreakers, is a heritage site and vibrant tourist attraction.


Visitors can explore and experience the top secret world of iconic WW2 Codebreaking Huts and Blocks set within the atmospheric Victorian estate nestled in a microcosm of Buckinghamshire countryside. Discover the secret world!
A day at Bletchley Park now includes an exciting, complimentary new Multimedia Guide in order to explore the site at your own pace and in your own time.  A Family version of the Multimedia Guide is also available to help children learn about WW2 Codebreaking whilst having fun with puzzles and challenges. A one hour outdoor walking guided Tour is also available.  Exhibitions available include The Life and Works of Alan Turing, the only reconstructed Bombe machine and the largest display of Enigma machines on public display in the world.
Visitors can enjoy a full day at Bletchley Park with a tasty hot and cold menu available in Hut 4 cafe, a playground where children can let off steam and a souvenir gift shop without which no visit is complete.
","The Mansion","Bletchley Park","","Milton Keynes","Buckinghamshire","MK3 6EB","01908 640404","http://www.bletchleypark.org.uk/","","","","3","","","6","",""
"31017","Hughenden Manor","Country home of the Victorian statesman Benjamin Disraeli.

Hughenden Manor offers a vivid insight into the charismatic personality and colourful private life of the most unlikely Victorian Prime Minister, Benjamin Disraeli, who lived here from 1848 to 1881.
You can browse among an extraordinary collection of personal memorabilia and there are hands-on activities for children.
Hughenden's secret wartime past is revealed in our Second World War room in the cellars, with interactive exhibits and eye-witness accounts.
The formal garden has been recreated based on the original designs of Mary Anne Disraeli and there are beautiful woodland walks surrounding this fascinating country home.
Activities for children - Try our I-Spy trails in the manor or the bird trail in the walled garden. Or enjoy a wild walk through the woodlands using one of our trails. Pick up your trails from the ticket office.
Woodland Walks - Pick up one of our walk leaflets and venture into ancient woodland. You may just spot one of our magnificent red kites circling above or, if you're quiet, you can hear the tap-tapping of the woodland woodpeckers.
Our Surroundings - Discover our surrounding sites. Stop and explore St. Michael and All Angels Parish Church located at the entrance of the estate. The Disraeli tomb can be found in the church yard. 
","(off Valley Road)","","","High Wycombe","Buckinghamshire","HP14 4LA","01494 755573","https://www.nationaltrust.org.uk/hughenden/","hughenden@nationaltrust.org.uk","","2","3","","","","",""
"31018","GB Shooting","GB Shooting has been providing this service for over 25 years and has taught 1000’s of clients how to shoot naturally.


Why not treat yourself, family, friends or business colleagues to some clay pigeon shooting at our private shooting school based in the beautiful Buckinghamshire countryside, just an hour away from London.

We cater for all abilities from the complete beginner to the competent shot. You will always find a friendly and relaxed atmosphere at GB Shooting as our natural teaching method is tailored to the individual. 

We offer impartial advice on all aspects of shotgun shooting from etiquette, clothing, gun selection, technique and hospitality.

Whether it’s your first time shooting, organising a party or improving your technique you will always be assured of a warm welcome at GB Shooting.
","Manor Farm","Whitchurch","","Aylesbury","Buckinghamshire","HP22 4RB","01296 641936","http://www.gbshooting.co.uk","gbshooting@gmail.com","","","","4","","","","8"
"31019","Milton Keynes Museum","Extensive displays portray the history and development of the area.


The Museum is located in the peaceful surroundings of Stacey Hill Farm. Stacey Hill Farm was built early in the Victorian era as a model farm. It was located on the outskirts of Wolverton, one of the UK's original ""railway towns"". Today the buildings overlook the ""new city"" of Milton Keynes but when they were built they were in the middle of the countryside. Our extensive displays portray the history and development of the North Buckinghamshire and South Northamptonshire area. The area has changed greatly over the years, culminating in 1960s with the creation of Milton Keynes, the UK's largest and last ""new city"".
The unique combination of new and old makes Milton Keynes one of the most unusual towns in England. Yet despite the fact that so much in the area is relatively new, there is a huge amount of history too. Much of this stems from the location of Milton Keynes in the middle of the country and mid-way between London and Birmingham. This is the reason why Milton Keynes was chosen as the location for the ""new city"" but it also helps explain why so many interesting and important historical events happened in the area.
","McConnell Drive","Stony Stratford ","","Milton Keynes","Buckinghamshire","MK12 5EL ","01908 316222","http://www.mkmuseum.org.uk","info@mkmuseum.org.uk","","","3","","","6","",""
"31020","Big Rock Climbing Centre","The best indoor climbing facilities around, including roped climbing walls up to 11m high, multiple low level bouldering areas and a dedicated kids' climbing area.


Big Rock Climbing Centre offers a fantastic variety of indoor climbing from 11m high climbs requiring the use of safety ropes and harnesses, to low level bouldering climbs attempted above deep foam matting. You'll find hundreds of different colour coded climbs to attempt from really easy challenges designed to offer manageable climbing for those new to the sport, to professional level climbs designed to inspire and challenge future champions.
 
The aim is to climb up using only the designated coloured holds - like join the dots but much more exciting! Choosing the correct sequence of coloured holds and reaching the top of a climb provides an unbeatable feeling and a really fun workout. It's the perfect antidote to boring gym regimes for adults and a great way to prove to kids that exercise is actually very exciting!

Everyone is welcome irrespective of whether they wish to use the climbing facilities. If you're visiting with friends or family but not climbing, or just fancy coming to have a look around, why not check out the Big Rock Cafe? Offering a superb selection of hot and cold drinks, snacks and meals served throughout the day, the cafe also has extensive seating overlooking the climbing walls and is equipped with free WiFi.
 
Please visit the website for further details.
","Mandeville Drive","Kingston","","Milton Keynes","Buckinghamshire","MK10 0AG","01908 583128","http://www.bigrockclimbing.co.uk","info@bigrockclimbing.co.uk","","","3","","","","7",""
"31021","Formula Fast Karting","Formula Fast is the place to come for the ultimate motorsport experience.


Formula Fast Indoor Karting opened at a brand new, bigger location in Milton Keynes for 2013, just a stone's throw away from MK Stadium. Providing Corporate and Private events, Conferencing, Open Races, Timed Practice (including family sessions), Junior Parties, Championships, Tuition and more, Formula Fast are renowned for quality and a warm service. 

We take a genuine interest in ensuring you and your group have a fantastic time. Top levels of safety give you the confidence to push your 200cc Sodi GT5 racing machine to the limit, whilst the state of the art facilities and fantastic mezzanine lounge, VIP and bar area provide a comfortable setting to relax whilst you're not behind the wheel. 

Whether you're looking to impress, galvanise or reward someone else, or you're simply out to enjoy the thrill of racing yourself just millimetres from the ground with unbelievable control at your fingertips.
","Unit 3","Bond Estate","Bond Avenue","Bletchley ","Buckinghamshire","MK1 1JJ","01908 371240","http://www.formulafast.co.uk","sales@formulafast.co.uk","","","","","","","",""
"31022","The National Museum of Computing","Mission: “To collect and restore computer systems particularly those developed in Britain and to enable people to explore that collection for inspiration, learning and enjoyment.”

The National Museum of Computing (TNMOC), located at Bletchley Park, is an independent charity housing the largest collection of functional historic computers in Europe, including a rebuilt Colossus, the world’s first electronic computer.
TNMOC enables visitors to follow the development of computing from the ultra-secret pioneering efforts of the 1940s through the mainframes of the 1960s and 1970s, and the rise of personal computing in the 1980s. New working exhibits are regularly unveiled and the public can already view a rebuilt and fully operational Colossus, the restoration of the Harwell Dekatron / WITCH computer, an ICL 2966, one of the workhorse mainframes computers of the 1980s, many of the earliest desktops of the 1980s and 1990s, plus the NPL Technology of the Internet Gallery. In June 2010 TNMOC hosted Britain’s first-ever Vintage Computer Festival.
The National Museum of Computing is a separate entity to the Bletchley Park Trust, but all visitors to the Park can visit TNMOC, when it is open, for a modest charge. Visitors coming to TNMOC only need not pay the Bletchley Park entrance fee.
","Block H","Bletchley Park","","Milton Keynes ","Buckinghamshire","MK3 6EB","01908 374708","http://www.tnmoc.org/","lin.jones@tnmoc.org","","","3","","","6","",""
"31023","Willen Lake","180 acre lake and park, offering something for all the whole family. A great day out!


North Willen Lake is the home of one of Milton Keynes' best known landmarks, the Peace Pagoda. The pagoda was built by, and is still maintained by, a group of monks and nuns of the Nipponzan Myohoji as a symbol of world brotherhood. The monks and nuns hold daily ceremonials and every June celebrate its anniversary with an open air festival of world music, song and prayer. 

Make sure you visit the Buddhist temple, situated next to the pagoda. Feel free to wander inside or visit the grounds with their Japanese and zen gardens.

It is this tranquillity that attracts such an amazingly rich and varied bird population. You don't have to be an expert to enjoy the huge variety of species, some rare, which live in or visit the park. There are identification panels around the lake edge and one in the bird hide together with a blackboard where visitors can record what they've seen. 

The lake's about 1 miles so takes anything from half an hour to an hour and a half to walk around, depending on how often you allow yourself to be distracted. 

Just across the road (V11) and accessible from North Willen is a BMX track. Open to all with suitable safety gear, it is the home of Milton Keynes BMX Club and has hosted a number of regional competitions.

At the north end of the lake you'll find The Labyrinth. It features a maze of pathways leading to a tree of life in the centre. The banks of the ridge are popular with sledgers in the winter.
","Brickhill Street","","","Milton Keynes ","Buckinghamshire","MK15 0DS ","01908 691620","","","","","","4","5","","",""
"31024","Delta Force Paintball","A five star accredited member of the UK Paintball Association.


The new Delta Force Paintball West London centre in Gerrards Cross is ideal for paintball enthusiasts living in Buckinghamshire. Conveniently located only minutes from the M25 and M40 motorways, the centre is easily accessible from nearby towns such as Maidenhead, Uxbridge and High Wycombe. Our new West London paintball centre offers players the same high standard of game zones usually found at other Delta Force UK paintball centres. The West London paintball centre also features an exciting post-apocalyptic London combat scenario, where players get to take cover in abandoned double-decker buses and do battle on the capital’s deserted streets. Chilling stuff!
Game Zones:
• Castle Wolfenstein
• Chemical Alley
• London Apocalypse
• Mad Murphy's Jungle Attack
• Viet Cong Village
","Gerrards Cross Rd","","","Stoke Poges","Buckinghamshire","SL2 4EU","0844 477 5115","http://www.paintballgames.co.uk/paintball-slough-centre","enquiry@paintballgames.co.uk ","","","","4","","","7",""
"31025","Pirate Island Adventure Golf","If you are looking for something different and fun in Milton Keynes, then you have come to the right place.

Ahoy there Shipmates! Welcome to Pirate Island Adventure Golf.
Pirate Island Adventure Golf is unlike any other mini-golf or crazy golf course you have ever played. Spectacularly themed and festooned with obstacles including a huge pirate ship, streams, rafts, snakes and crocodiles, Pirate Island Adventure Golf is swashbuckling fun for everyone!
Whether you are an old seadog or a young scallywag you’ll love the challenge of Pirate Island.
","Monks Way","Two Mile Ash ","","Milton Keynes ","Buckinghamshire","MK8 8AA","01908 562566 ","http://www.pirateislandgolf.co.uk/miltonkeynes","info@pirateislandgolf.co.uk","","","","4","","","7",""
"31026","Hell-Fire Caves","Let's begin our journey down through the caves.


A tour down the Caves takes you along deep winding passages which extend over a quarter of a mile underground and lead past various small chambers to the Banqueting Hall, and then further down over the River Styx. According to mythology this River separated the living world from the Underworld. You finally reach the Inner Temple are are now some three hundred feet beneath St Lawrence's Church with its Golden Ball on the top of the hill. 

Don't forget to keep your eyes peeled for our resident ghosts, Sukie and Paul Whitehead.

Please see the website to discover more about this fascinating 18th century attraction.
","Church Lane","West Wycombe","","High Wycombe","Buckinghamshire","HP14 3AH","01494 533739","http://www.hellfirecaves.co.uk/","hellfirecaves.co.uk‎","","","3","","","","7",""
"31027","Xscape MK","Sports and entertainment complex features indoor snow slopes, climbing walls, bowling lanes, a multi-screen cinema and a variety of interactive games.


Xscape, Milton Keynes is the ultimate entertainment destination offering a unique combination of extreme sports and leisure activities for all ages, where you can play, eat and shop all day and all night.
 Where else can you find the country’s biggest indoor REAL snow slopes, Europe’s first purpose-built body flying tunnel! , rock climbing walls, bowling, multiplex cinema, gym and fitness centre, numerous bars and restaurants and  urban retail outlets all under 1 roof?
 Plus – with free family entertainment every school holidays Xscape Milton Keynes really is the ULTIMATE ENTERTAINMENT DESTINATION in the South East. So what are you waiting for?yourself
","602 Marlborough Gate","","","Milton Keynes","Buckinghamshire","MK9 3XS","087 1222 5670","http://www.xscape.co.uk/milton-keynes/","","","","3","","","","7",""
"31028","Wendover Woods","Come and explore Wendover Woods. If you're feeling energetic, try Go-Ape! Tree Top Adventure, orienteering, or our fitness trail assault course. There are also plenty of spots to admire the view or enjoy a picnic.

Walking trails - Most of the trails within Wendover Woods start and finish close to the central car park. Pick up a leaflet from site or download the map to help you navigate your way around the woods.
Cycling - We have a family cycle trail which is perfect for exploring the woods by bike.
Go Ape. UK’s No.1 Forest Adventure - Enjoy two to three hours of adventure high above the forest floor, taking on Zip Wires, Tarzan Swings and a variety of Crossings.  
Play - The Children's Adventurous Play area is set amongst the trees with challenges for children of most ages and abilities.
Café and barbecues - Refuel after your adventure at the Café in the Woods. Or have a barbecue? We have stands available free of charge or you can book one of our private bookable areas.
","Upper Icknield Way","Aston Clinton","","Aylesbury","Buckinghamshire","HP22 5NF","01296 696543","http://www.forestry.gov.uk/wendoverwoods"," wendoverwoods@forestry.gsi.gov.uk","","","","4","5","","",""
"31029","Ivinghoe Beacon","A popular spot for walkers, sightseers, and model aircraft enthusiasts, who use lift generated by the wind blowing up the hill – a technique known as slope soaring.


It’s a great location if you fancy a brisk walk on the Chiltern Hills, or maybe take a kite, or just have a picnic, watching the model gliders on top of Ivinghoe Beacon. 
It is close to Ash ridge Woods and is part of the Ridgeway walk. 
Car parking is free.
OS grid reference SP971131
","","","","Aldbury","Buckinghamshire","HP4 1LX","","","","","","","4","5","","",""
"31030","Lacey Green Windmill","The unique oak machinery inside the windmill dates from 1650, making it the oldest smock windmill in England.


Lacey Green windmill stands on the escarpment of the Chiltern Hills, near Princes Risborough and halfway between High Wycombe and Aylesbury. Since 1971 it has been restored back to working order by members of The Chiltern Society.  
The windmill will is generally open to the public from 2 pm to 5 pm on Sundays and Bank Holidays from Sunday the start of May until the last Sunday 28th September. Although please check their website before setting off. 
","Main Road","","","Lacey Green","","HP27 0PG","01844 275871","http://www.laceygreenwindmill.org.uk/","contact@laceygreenwindmill.org.uk","","2","3","","","","",""
"31031","Ashridge Estate","Ancient woodland and rolling downland.

Ashridge Estate is a 2,000 hectare (5,000 acres) area of the Chilterns Hills. The estate has beech and oak woodlands, commons and chalk downlands. These very different landscapes each support a rich variety of wildlife, including carpets of bluebells in spring, rare butterflies in summer and the fallow deer rut in autumn.
The best way to explore the Ashridge Estate is on foot or by bike. Miles of footpaths and bridleways give you plenty of space to explore, and if you drop into the visitor centre we’ll be happy to share our favourite routes with you. We also have mobility scooters if you don’t want to explore under your own steam.
A working estate
We took on the Ashridge Estate in 1926 and we manage the landscape as a working estate, continuing 3000 years of tradition. We use livestock to help look after the diverse habitats on the downlands and our foresters fell timber to ensure the health of the woodland. Keep an eye out for both two and four legged conservation team members during your visit, our human ones will be happy to answer questions on our work.
The Bridgewater Monument is located Bridgewater's canal building success, this Grade II listed monument rewards those who climb its 172 steps with a view over seven counties.within the Estate. Built in 1832 in tribute to the third Duke of 
","Moneybury Hill","","","Ringshall","Buckinghamshire","HP4 1LT","01442 851227","http://www.nationaltrust.org.uk/ashridge-estate/","ashridge@nationaltrust.org.uk","","","","4","5","","",""
"31032","Milton's Cottage","Once the home of John Milton (1608-1674), one of England’s greatest poets. It is now a museum of his work and times.

Milton's Cottage is the only extant home of John Milton, the great English poet and parliamentarian, in Chalfont St. Giles, Buckinghamshire. It was in this grade 1 listed XVIth century cottage, described by Thomas Ellwood as ""that pretty box in Giles, Chalfont"", that Milton completed Paradise Lost, and the idea of Paradise Regained was put to him.
The four ground floor museum rooms contain the most extensive collection in the world on open display of 17th Century first editions of John Milton's works, both poetry and prose. Hear of the extraordinary career of this blind genius vividly described in his refuge from the plague where he wrote some of the finest poetry and feel the ambience of the setting. The thoughts of John Milton and the diverse nature of his published works are the evidence that demonstrates why he leaves such an enduring legacy.
","Deanway","","","Chalfont St. Giles","Buckinghamshire","HP8 4JH","01494 872313","http://www.miltonscottage.org","info@miltonscottage.org","","2","3","","","6","",""
"31033","Go Ape at Wendover Woods","Take in breath-taking views of the Chiltern Escarpment and enjoy great adventure days out near Aylesbury.

Set high up on the Northern crest of the Chiltern escarpment, at Go Ape Wendover Woods you can enjoy the spectacular and idyllic views and wild landscape across Aylesbury Vale from high up in the trees.
With a smattering of tree-top high wires, high ropes crossings and a wind-in-your-face zip wire, you’ll want to swing by this Tree Top Adventure in Buckinghamshire. And if you’re looking for activities and things to do near Oxford, Go Ape really is just a stones throw away.
And just so you know your nearest Forest Segway adventure is Black Park Country Park.
","St Leonard's Road","(Off Upper Icknield Way)","","Aston Clinton","Buckinghamshire","HP22 5NF","0845 643 92 15 ","http://goape.co.uk/days-out/wendover","questions@goape.co.uk","","","","4","","","",""
"31034","Emberton Country Park ","Emberton Country Park next to Olney offers 200 acres of parkland and lakes where day visitors can enjoy peace and relaxation. 


The area was originally a gravel works, but has now been transformed into an attractive parkland setting, which is welcoming to visitors and encourages peace and relaxation.

There are children’s play areas, a conservation area, sailing club and picnic areas. 
Emberton Country Park offers easy cycling. It has easy walks and cycle routes within a mile of Olney. Many footpaths link in to it. 
There is also a 22 km (13 mile) circular route which covers Emberton - Harrold - Carlton - Turvey - Newton Blossomville. Another route of 10 km (6 miles) on a circular route from Emberton to Petsoe, Chicheley, Sherrington and back to Emberton.
","Olney Rd","","","Emberton","Buckinghamshire","MK46 5FJ","","","","","","","4","5","","",""
"31035","Chiltern Open Air Museum","A beautiful rural museum of historic buildings.


Chiltern Open Air Museum was founded by volunteers in the 1970s, and opened to the public in 1981.  The museum rescues threatened historic buildings, which would otherwise be demolished, and rebuilds and preserves them in a traditional Chilterns landscape.


Families - The museum is a great place for families, with a 43-acre site to run around and explore.  Children can have fun dressing up in vintage clothes, meeting the farm animals, playing historic toys and games, and trying our free trails and backpacks.  Find out more about what we have on offer for families by using the menu on the right.

The Museum has an environmentally-friendly ethos.  The 43-acre site, which includes woodland and arable fields, is maintained using traditional skills and machinery.  We are self-sufficient where possible, for example using vegetables grown on the allotment in the Museum Tea Room; using timber coppiced in our woodland as fuel and building material; and repairing metalwork in the Forge.
","Newland Park","Gorelands Lane","","Chalfont St Giles","Buckinghamshire","HP8 4AB ","01494 871117","http://www.coam.org.uk","enquiries@coam.org.uk","","","","4","","6","",""
"31036","Claydon House","Splendid 18th-century English interiors in an idyllic country setting.


In the 1750s at his family seat in Buckinghamshire, Sir Ralph Verney set out to create a country house of extraordinary grandeur that would dazzle his wealthy neighbours and outdo his political rivals. Thirty years on he was facing financial ruin.
Today the interiors that remain are among the most ambitious and lavish ever created in the 18th century.
Claydon has been occupied by the Verney family for more than 550 years; the place is a testament to their fascinating fluctuating fortunes, from their close involvement in the English Civil War to the family connection with Florence Nightingale.
","Middle Claydon","","","near Buckingham","Buckinghamshire","MK18 2EY","01296 730349","http://www.nationaltrust.org.uk/claydon/","claydon@nationaltrust.org.uk","","2","3","","","","",""
"31037","360 Play","Family entertainment centre. The place to go – whatever the weather. Active, imaginary and creative play in a fantastic, safe environment.


360 Play has been developed to stimulate families physically, mentally and socially.
We have developed core areas of play activities to challenge and entertain even the most active of children.
 
Having time and space to play gives children the opportunity to meet, socialise and make new friends, it keeps them physically active and gives them the freedom to make their own choices.
At 360 Play we provide the safe secure environment that today’s parents are looking for to enable their children to develop how we once did. By building resilience through risk taking and challenge, problem solving, and dealing with new and novel situations children play and learn crucial life skills sadly missing in today’s soft culture.

Please visit the website, where you will find lots more information, take a virtual tour and read details of their party facilities.
","Roebuck Way","Knowlhill","","Milton Keynes","Buckinghamshire","MK5 8HL","01908 308360","http://www.360play.co.uk/miltonkeynes/index.aspx","mailmk@360play.uk.com","","","3","","","","7",""
"31038","Chenies Manor","This historic and enchanting Tudor Manor House: with its Award Winning Gardens is set in the charming estate village of Chenies in Buckinghamshire overlooking the Chess valley.


This Grade I Listed Building, known formerly as Chenies Palace, was owned by the Cheyne family who were granted the manorial rights in 1180. The manor remained in their possession until the end of the 15th Century. The semi-fortified brick manor house which forms the core of the present day structure was built by Sir John Cheyne in approximately 1460. Both Henry VIII and Queen Elizabeth I visited the house on numerous occasions accompanied by their Courts.
The gardens in their present form are the creation of Alistair and Elizabeth MacLeod Matthews and are divided into a series of compartments, with various colour themes and structural forms, combining imaginative plantings and beautiful plant associations.
Among these are; the sunken garden, the white garden, the south border, the rose gardens, the inner court, the physic garden, the parterre with its yew maze and the kitchen garden with its orchards and penitential maze.
The architectural historian Nickolaus Pevsner described the manor house as; ""Beautifully mellow under the trees by the church, and archaeologically a fascinating puzzle""
The 22 individual cut brick chimneys distinguish the manor house and are echoed throughout the estate village.
From the picturesque village green a private gravel drive leads invitingly up to the Manor House. Immediately outside the gates is the church of St. Michael, together with the private Bedford Chapel. The front gates open into the Inner Court, leading to the house and gardens. Guided tours of the house are available.
At Chenies Manor we offer:
• Guided tours of the house.
• Refreshments for your visit: we serve delicious home-made teas and cakes.
• A Gift Shop where you can buy guidebooks, mementos, local produce and plants.
• Art Exhibitions during the summer.
","","","","Chenies","Buckinghamshire","WD3 6ER ","01494 762888 ","http://www.cheniesmanorhouse.co.uk","macleodmatthews@btinternet.com ","","2","3","4","","","",""
"31039","Gulliver's Land","Looking for a fun-filled day out for you and your little ones? Over 70 attractions including rides and shows to enjoy each day.


Unlike most other theme parks in the UK, Gullivers World caters especially for younger children. This means that if you are looking for great days out for toddlers and youngsters, then we are the park for you. We’re a family-run attraction, designed for families with children aged between 2 to 13. From the Runaway Train in Discovery Bay to the Jungle River Ride and classic Dodgems there are plenty of exciting rides to ensure that all the family have a fun day out. There are also a number of rides designed for the Under 5s, as well as shows and toddlers’ favourites – the ZingZillas!

You won’t see ticket offers for our theme park on the high-street; we take pride in giving you great value for your money and so this website gives you our best price guarantee. But for more great value deals, it’s worth following Gully on Facebook to get access to our exclusive online special offers!

To ensure that you have an affordable family day out, our guests are welcome to bring their own lunches to enjoy in our picnic areas.

On top of this, parking in our park is completely FREE.
","Livingstone Drive","Newlands","","Milton Keynes","Buckinghamshire","MK15 0DT","01925 444 888","http://www.gulliversfun.co.uk/milton-keynes","","","","","4","","","7",""
"31040","Aerial Extreme","Discover extreme fun on our high ropes adventure.

Join us for a unique, exciting and fun packed experience on our awesome High Ropes Adventure Courses. Amaze yourself as you take each of the challenges head on, from speedy zips, mid-air jumps, suspended gravity defying climbing walls, and much more...
With loads of jumping, dropping, laughing and screaming obstacles, this course is the BIGGEST high rope adventure course in the south of England. With the Junior Course, the Adventure Course and now Goliath! There are loads of challenges from the gentle to the truly adrenalised!  So prepare your family for a truly great day out!
Course stats:
o Junior Adventure Course
o Size - up to 4m high
o Obstacles - 17
o Duration - 45 mins
o Height - 1.1m+ minimum height
o The Adventure Course
o Size - 5 to 14m
o Obstacles - 37
o Duration - Up to 2 hrs duration
o Height - 1.4m+ minimum height
","V10 Brickhill Street","Willen Lake ","","Milton Keynes","Buckinghamshire","MK15 0DS","0845 652 1736","http://www.aerialextreme.co.uk/courses/milton-keynes/","info@aerialextreme.co.uk","","","","4","","","7",""
"31041","Rogue Racing","The longest indoor karting track in Buckinghamshire.


Rogue Racing, in the market town of Aylesbury, is the ultimate driving experience for ages 8 upwards. 

Rogue Racing can cater for parties, corporate events, grand prix races, endurance races, women’s only events and more...
 
A warm welcome awaits you with friendly staff ready to assist you in a safe and enjoyable environment catering for the novice and experienced karters alike. All equipment is provided; overalls, helmets optional neck brace and gloves. To make the most of your visit, please visit our website and take a look at our FAQ's.

Rogue Racing has two sizes of karts, 160cc for children and 200cc Honda engines for adults. Each kart has wrap-around bumpers for safety (karting is NON-CONTACT racing and intentional bumping is STRICTLY NOT ALLOWED), wide fitting seats, pedal extensions and hydraulic brakes. The pedals are adjustable and should your legs be a little on the short side, a seat booster can be fitted.

The indoor track is 350 metres long and consists of 2 long straights and 8 competitive corners which results in close racing. Overtaking is possible on all sections of the track - if you have the talent and the bottle! The track is a mix of tarmac and wooden boards and very smooth - perfect when you're sitting just inches above the ground in a 200cc kart travelling at speeds of up to 40mph.

 
Karting is a great fun family experience (please note, there is a 1.3 metre height restriction to drive a kart), everyone who comes off the track can't wait to get back on! So Go Karting in Aylesbury NOW.....
","Unit 11 Pembroke Road","Stocklake Industrial Area","","Aylesbury","Buckinghamshire","HP20 1D","01296 330567 ","http://www.rogueracing.co.uk","enquiries@rougueracing.co.uk","","","3","","","","7",""
"31042","Cowper and Newton Museum","A lovely museum packed with local history.


‘The Cowper Memorial Museum and Library’ was opened in 1900, but within a few years became known as ‘The Cowper and Newton Museum’, as it has remained ever since.
The museum was largely the creation of its first Custodian, Thomas Wright, who worked tirelessly to raise local and national awareness of Olney’s heritage. A schoolmaster in the town, he was also a prolific author, producing a comprehensive edition of Cowper’s letters, biographies of Cowper, Defoe and Dickens, poetry, historical novels and many books and pamphlets on Olney and its surrounding countryside. His other great enthusiasm was the poet and artist William Blake, who was himself a passionate admirer of Cowper’s poems and letters; Wright was for many years Honorary Secretary of the William Blake Society.

We run a number of events throughout the year including special events for children and Heritage Open Days. Please visit the website to find out more.
","Orchard Side","Market Place","","Olney","Buckinghamshire","MK46 4AJ","01234 711516","http://www.cowperandnewtonmuseum.org.uk","info@cowperandnewtonmuseum.org.uk","","","3","","","6","",""
"31043","Wycombe Museum","Set in beautiful grounds, and with exciting hands-on activities.


The art collection has a strong emphasis on local subjects and local artists. It includes landscapes, portraits and historical scenes in oils, watercolour, print and sculpture dating from the 17th to the 21st centuries. 

The furniture industry collection represents the Wycombe district and the wider Thames Valley/Chilterns region. The furniture collection includes Windsor chairs from the 18th to the 20th centuries, other locally produced chairs including cane and rush seated from the 19th and 20th centuries.

The photographic collection includes glass plate negatives, negatives and photographic prints. It covers a wide range of views and subjects relating to the Wycombe district, including a strong collection of images of the furniture industry and trade. 

The social history collection represents everyday life in the Wycombe district. Items date from Norman times right up to the present day, although most are from the 19th and 20th centuries. The collection includes domestic objects such as cooking utensils, clothing, coins and tokens, oral history recordings, civic items such as those relating to the office of mayor. 
Wycombe Museum has a packed calendar of hands-on activities, excitement and learning for all the family. Please visit the website to view the calendar of events.
","Priory Avenue ","","","High Wycombe ","Buckinghamshire","HP13 6PX","01494 461 000","","museum@wycombe.gov.uk","","","3","","","6","",""
"31044","Bletchley Leisure Centre","At Bletchley you will discover a great place to get fit, have fun and get together with friends, family and people just like you.


There’s a whole range of fantastic facilities available, designed to inspire and motivate you to lead a healthier, happier life. Pop in for a swim, come by for a class or drop in for a coffee at Beaumonts Café, you’ll always find something new to do. 
Bletchley Leisure Centre is home to Beaumonts Health Club, which includes a fitness studio with the latest Fitlinxx technology, dance studio, Pedal-X studio, sauna and steam room and is complemented by a 25m pool, badminton, squash as well as a multi-purpose sports hall and 7 indoor bowls rinks.
We have a wide programme of activities for all ages and abilities and a tremendous team of staff who are here to make sure you have a great experience and enjoy every visit.
At Bletchley we have an 8 lane 25 metre certified competition swimming pool which is 0.9m at the shallow end with a continuous gradient down to 1.8m at the deep end.
We have a modern 'Changing Village' with free use of showers and integral hair dryers. Lockers operate using a £1 coin returned automatically after use.
","Princes Way","","","Bletchley","Buckinghamshire","MK2 2HQ","01908 377251","http://www.hertsmereleisure.co.uk/bletchley+leisure+centre/home+page","","","","3","","","","",""
"31045","Daytona Milton Keynes","The UK’s ultimate outdoor karting venue, boasting two exceptional race tracks.


The International circuit is 1360m in length comprising 11 corners, some of which are very technical and straights of various lengths. The International circuit suits racers of all abilities from beginners to serious enthusiasts and is widely considered to be one of the best circuits in the UK.

The National Circuit is made up of 900m of the international circuit and incorporates two corners that are not used in the international configuration. The national circuit provides a challenging drive and incorporates a variety of technical corners with plenty of overtaking opportunities.

The North Circuit At 375 m the North Circuit offers very close racing. The Circuit is challenging, with some technical corners and is ideally suited to smaller adult groups and Juniors. The North Circuit is the perfect environment to learn and improve technique before graduating to the National or International circuit.

Subject to availability, Daytona Milton Keynes offers arrive & drive practice sessions on the International circuit for drivers aged 16+, on the North circuit for drivers aged 8-15*  (and for Bambino Graduates aged 5-7). Senior Drivers may also upgrade to Vodafone DMAX Two Stroke Karts.

The circuits are flood lit so operational from 9am to 10pm.

Excellent hospitality and conferencing facilities are available.
","H4 Dansteed Way","Rooksley","","Milton Keynes","Buckinghamshire","MK13 8NP","0845 644 5503","http://www.daytona.co.uk/venues/miltonkeynes/index.php","mk@daytona.co.uk","","","","4","","","7",""
"31046","Jurassic Mini-Golf","A thrilling 12-hole adventure golf course.


With 10 Life Size Dinosaur Models, A Life Size Moving T-Rex, The Jurra Dungle And 12 Artificial Grass Golf Holes Is The Attraction For Every Age.

Fully Paced With Fun, Entertainment, Education And Some Special Golf Finesse Expect Our Jurassic Golf Team Every Day In The Heart Of “the centre:mk” In Milton Keynes.

Our Adventure Golf Course Offers The Following Features:
12 - Artificial Grass Holes With A Length From 5,50m To Up To 12,00m
13 - 3 Golf Ramps
14 - 100 Artificial Sand Rocks
15 - More Than 100 Artificial Plants and Palms
16 - Artificial Waterfall (August 2013)
17 - Military Jeep
","The Centre MK ","Queens Court","","Milton Keynes ","Buckinghamshire","MK9 3EA","","http://www.jurassic-golf.com/","info@jurassic-golf.com","","","","4","","","7",""
"31047","The Equestrian Centre at Shardeloes Farm","A long established family run business boasting 500 acres of rolling countryside and spectacular views nestled in an area of outstanding natural beauty above the picturesque town of Old Amersham in the Chiltern Hills.

Shardeloes Farm has been welcoming clients of all standards and disciplines for the last 15 years and so is the perfect choice for you whatever your ability or aims. We have a good selection of well-schooled horses and ponies that are willing and able to take you through your riding journey whatever your destination.
The riding school at Shardeloes is arguably the best in the Chilterns. We offer quality tuition and provide a safe and fun learning experience.

We are delighted to be able to offer 500 acres of some of the best off-road hacking in the Chilterns. You'll love exploring the British countryside!

We are proud of the wide range of best in class facilities and services that we offer our valued liveries. Our various livery packages cater for every need.

Please visit the website for more details, including the upcoming events calendar for all the latest information about what's going on.
","Cherry Lane","","","Amersham","Buckinghamshire","HP7 0QF","01494 433333","http://www.shardeloesfarm.com/index.php","office@shardeloesfarm.com","","","","4","","","","8"
"31048","Wake MK ","WakeMK is one of the UK's largest cable wakeboard and waterski centres. Set in 180 acres of landscaped parkland it is just 3 minutes from the M1 Junction 14 in Milton Keynes.


Wakeboarders, waterskiers, kneeboarders, wakeskaters, kitesurfers, and even surfers are all welcome at WakeMK. The Cable lets you ride all year round without the limitations of fuel, boats, wind, or surf. And if you think you need a wake to get air, visit our website and check out our gallery and see what's possible. 

Bring your own kit, or try out our hire stock or demo boards; we can provide everything you need including Wakeboards, Water-skis, Kneeboards, Wakeskates, Wetsuits, Buoyancy aids, even helmets if you wanna hit the kicker or sliders.

It doesn't matter if you've never wakeboarded or waterskied before - we can get you started. Everything you do behind the boat can be done on the cable, and most people who ride cable and boat will tell you that they get the biggest air on the cable!!!
We have a wide range of tuition packages for all ages and abilities. Our Group lessons run throughout the season from March to November and our private tuition ","The Cable Building","Willen Lake","V10 Brickhill Street","","Buckinghamshire","MK15 9HQ","01908 670 197","http://www.wakemk.com","info@wakemk.com","","","","4","","","",""
"31049","Airkix Milton Keynes","Experience what it is like to really fly, in a fun and safe environment.
 

Imagine a wind tunnel that could be used for testing the aerodynamics of an F1 racing car, turn it upright, gently lean into the airflow and you are skydiving. 

Airkix MK is the first indoor skydiving centre in Europe.

The instructor will help you get into a neutral flying position before teaching you the basic moves. Movements including going up and down, forwards, backwards, sideways and turning are all simple and easy to master and you will soon be learning new tricks!
","602 Marlborough Gate","","","Milton Keynes","Buckinghamshire","MK9 3XS ","0845 331 6549","http://www.airkix.com/our-tunnels/airkix-milton-keynes.aspx","info@airkix.com","","","3","","","","",""
"31050","Danesfield House Spa","An oasis of elegance and calm awaits you.


Our award-winning Spa provides a relaxing escape from the stresses of everyday life with its 20 meter ozone-cleansed pool. A wide range of relaxing and pampering treatments are available within our 8 luxury treatment rooms and hydrotherapy suite.

Experienced, friendly therapists are on hand to provide the most relaxing treatments you could hope for within an award-winning luxury Spa. Our sumptuous, cosy treatment rooms are exquisitely relaxing. Soft lighting, comfortable treatment couches and crisp, white duvets will ensure you'll feel as though you never want to leave.
Facilities
• 20 metre Ozone Cleansed Pool
• Jacuzzi
• Steam Rooms and Saunas
• Male and Female Relaxation Rooms
• A Fully equipped Technogym Gymnasium
• Fitness Classes
• 8 luxury Treatment Rooms
• Hydrotherapy Bath
• Manicure and Pedicure Suite
• Luxury range of treatments from Aromatherapy Associates, Moroccan Oil, Jessica and GELeration Nails
• Juice Bar
","Henley Road","","","Marlow","Buckinghamshire","SL7 2EY","01628 891881","http://www.danesfieldhouse.co.uk/spa-and-leisure","enquiries@danesfieldhouse.co.uk","","","3","","","","","8"
"31051","Hartwell House Spa","Beautiful spa, forming part of Hartwell House – a stately homes with nearly a thousand years of fascinating history.

Swim in the warm clear water of the inviting pool, lined with blue mosaic tiles or relax in the steam room, saunas and the bubbling waters of the whirlpool bath. Experienced therapists offer a wide range of beauty treatments, Manicures & pedicures using Clarins, Espa, Jessica and St Tropez products. You can opt for individual treatments or splash out on a Beauty Day encompassing a range of treats.
For the energetic, a gymnasium has all the latest technologically advanced equipment, suitable for all ranges of fitness.  In a gallery overlooking the pool is the Spa Café and Bar, open to both residents and non-residents for breakfast, morning coffee, lunch and afternoon tea. A delicious menu includes a range of salads and light meals.
","Oxford Road","","","Aylesbury","Buckinghamshire","HP17 8NR","01296 746500","http://www.hartwell-house.com/spa-special-offers-and-events/","spa@hartwell-house.com","","","3","","","","","8"
"31052","Stoke Park Spa","Recommended as one of the ""Four 'Must Visit' Spas in the World"" - Vanity Fair.

Stoke Park Spa is set within the sweeping natural beauty of a thousand year old estate. Since its visionary creation as the first country club in Britain in 1908, Stoke Park has become a unique and accessible fusion of heritage-rich elegance and contemporary luxury, where some of the finest sporting and leisure facilities in the world can be enjoyed.

Stoke Park Spa is situated in The Pavilion, which also houses 28 contemporary luxury bedrooms that are ideal for a spa retreat experience. The Pavilion offers a beautiful, modern fusion of energy and serenity with facilities that include an indoor heated swimming pool, Italian marble steam rooms, deep relaxation room, a private atrium with stunning five metre tropical aquarium, nail bar, boutique and 13 multi-surface tennis courts.

Here at Stoke Park Spa we are dedicated to finding and using only the best products in your treatments, which we have found in the luxurious Thalgo range of products - www.thalgo.com. Every need is catered for: age-defying facials, algae body wraps and Polynesia rituals are just some of the highlights in our extensive treatment menu.
""We pride ourselves on offering luxury treatments that transcend you from your everyday hectic lifestyle into a world of tranquil escapism”.
","Park Road","","","Stoke Poges","Buckinghamshire","SL2 4PG","01753 717171","http://www.stokepark.com/spas-in-buckinghamshire/luxury-spa-breaks/stoke-park-spa.html","info@stokepark.com","","","3","","","","","8"
"31053","The Chiltern Brewery","The oldest independent brewery in the Chiltern Hills and Buckinghamshire.


With 30 years experience and innovation in brewing fine ales, our family run business combines age-old brewing methods using 100% British ingredients.

We are passionate about brewing beers of the finest quality, ensuring natural and wholesome ingredients with an excellent provenance. Our brewing methods are efficient and very sustainable and our team are committed to maintaining high standards to offer you a friendly and reliable service at all times.

Our tours include an introduction to the art of craft brewing, a brief history of the Chiltern Brewery, a tour of the Brew House and a tutored beer and food tasting session with a delicious selection of our locally made chandlery.
The brewery and the brewery shop are located on our rural farm site just outside Wendover. In the heart of the market town of Aylesbury we have a 15th century pub offering fine food and our full range of draught and bottled beers.
","Nash Lee Road","Terrick","","Aylesbury","Buckinghamshire","HP17 0TQ","01296 613647","http://www.chilternbrewery.co.uk/","enquiries@chilternbrewery.co.uk","","","3","","","","","8"
"31054","Chiltern Valley Winery & Brewery","Come and take a tour of our modern production, bottling and labelling facilities, cellar shop and wine vats - all housed in traditional farm buildings. 

We are a business passionately committed to providing you with products which are uniquely hand crafted to the highest standards, linked with a service which is friendly and informed. 
We have been running our tour and tasting events for over 25 years which have are becoming more and more popular each month. Starting of as a winery in 1982 we later diversified into the brewing of our English Ales. Because of the ales we then went on to be commentated the Royal warrant in 2007 by Her Majesty The Queen. As the millennium hit we reshaped our taste buds into the production of Liqueurs and this is now a large part of our production her at Chiltern Valley. If you are remotely interested in quality Wines, Ales or Liqueurs then I highly recommend a visit and best of a Tour and Tasting.
Our 2 hour tour ‘behind the scenes’ around our Winery, Brewery and Liqueur production facilities demonstrates a fun and extensive learning experience. As well as a full explanation of the grape pressing machinery that is used during the harvest. The bottling, labeling and capsulation machinery is later seen and explained. Last but no means least the tour is completed with a tutored 30-40 minute tasting of a generous selection of our Wines, Ales & Liqueurs.
We do recommend either getting a taxi or better still staying in our onsite B&B to really complete the experience.
Our events are held all year round and are NOT weather dependent. They are set inside the production facilities. However walking from building to building is required.  
Please visit the website to find out more and book a tour.
","Old Luxters Vineyard","Hambleden","","Henley-on-Thames","Oxfordshire","RG9 6JW","01491 638 330","http://www.chilternvalley.co.uk/","enquiries@chilternvalley.co.uk","","","3","","","","","8"
